// EVENT 4621
Name "Oni"

If(0,25,1)
 221()
 PictureClear(5)
 PictureClear(6)
 ShowMessageFace("",0,0,2,0)
 ShowMessage("......")
 242(2)
 Wait(120)
 241(bytes(0x04,0x08,0x6f,0x3a,0x0d,0x52,0x50,0x47,0x3a,0x3a,0x42,0x47,0x4d,0x08,0x3a,0x0a,0x40,0x6e,0x61,0x6d,0x65,0x49,0x22,0x0c,0x63,0x61,0x73,0x74,0x6c,0x65,0x36,0x06,0x3a,0x06,0x45,0x54,0x3a,0x0c,0x40,0x76,0x6f,0x6c,0x75,0x6d,0x65,0x69,0x69,0x3a,0x0b,0x40,0x70,0x69,0x74,0x63,0x68,0x69,0x69))
 EndEventProcessing()
 0()
EndIf()
PictureDisplay(5,"80_kooni_st01",0,0,0,0,100,100,255,0)
ShowMessageFace("kooni_fc1",0,0,2,1)
ShowMessage("\\n<Shizuku>You want me to violate you... Seriously?")
ShowMessageFace("",0,0,2,2)
ShowMessage("\\n<Luka>P-please...")
ShowMessageFace("kooni_fc1",0,0,2,3)
ShowMessage("\\n<Shizuku>I guess there's no helping it...\nOkay! I want to do lewd things too!")
241(bytes(0x04,0x08,0x6f,0x3a,0x0d,0x52,0x50,0x47,0x3a,0x3a,0x42,0x47,0x4d,0x08,0x3a,0x0a,0x40,0x6e,0x61,0x6d,0x65,0x49,0x22,0x09,0x65,0x72,0x6f,0x31,0x06,0x3a,0x06,0x45,0x54,0x3a,0x0c,0x40,0x76,0x6f,0x6c,0x75,0x6d,0x65,0x69,0x69,0x3a,0x0b,0x40,0x70,0x69,0x74,0x63,0x68,0x69,0x69))
PictureDisplay(5,"ev_kooni_h09",0,0,0,0,100,100,0,0)
PictureMove(5,null,0,0,0,0,100,100,255,0,30,true)
ShowMessageFace("",0,0,2,4)
ShowMessage("Shizuku rips off my clothes, leaving me naked.")
ShowMessage("She then undresses herself, and clings to me.")
ShowMessageFace("kooni_fc1",0,0,2,5)
ShowMessage("\\n<Shizuku>I've been practicing squeezing inside my vagina.\nI can make it soooo tight, someone like you would come in an instant. ♪")
ShowMessageFace("",0,0,2,6)
ShowMessage("\\n<Luka>Aaah...")
ShowMessageFace("",0,0,2,7)
ShowMessage("Grabbing my penis, she leads me to her entrance.")
ShowMessage("She presses my glans to her slit, and forces me in all at once.")
245(bytes(0x04,0x08,0x6f,0x3a,0x0d,0x52,0x50,0x47,0x3a,0x3a,0x42,0x47,0x53,0x08,0x3a,0x0a,0x40,0x6e,0x61,0x6d,0x65,0x49,0x22,0x1e,0x6d,0x6f,0x6e,0x5f,0x68,0x73,0x65,0x61,0x6e,0x30,0x37,0x5f,0x69,0x6e,0x6e,0x65,0x72,0x77,0x6f,0x72,0x6b,0x73,0x5f,0x61,0x37,0x06,0x3a,0x06,0x45,0x54,0x3a,0x0c,0x40,0x76,0x6f,0x6c,0x75,0x6d,0x65,0x69,0x55,0x3a,0x0b,0x40,0x70,0x69,0x74,0x63,0x68,0x69,0x69))
PictureDisplay(5,"ev_kooni_h10",0,0,0,0,100,100,255,0)
ShowMessageFace("",0,0,2,8)
ShowMessage("My penis sinks into her tight vagina!")
ShowMessage("Somewhat muscular flesh presses down on me from every side.")
ShowMessageFace("",0,0,2,9)
ShowMessage("\\n<Luka>Ah, aaah!")
ShowMessageFace("kooni_fc1",0,0,2,10)
ShowMessage("\\n<Shizuku>Ahaha, it's already pretty tight, right?~♪\nBut there's a lot more to go...♪")
ShowMessageFace("",0,0,2,11)
ShowMessage("Saying that, Shizuku clenches her stomach.")
ShowMessage("Her narrow vagina squeezes me from every direction.")
ShowMessageFace("",0,0,2,12)
ShowMessage("\\n<Luka>Hya... Aaaaaah!!")
ShowMessageFace("kooni_fc1",0,0,2,13)
ShowMessage("\\n<Shizuku>Even if you moan, I won't let up~♪\nIt's useless, even if you cry. ♪")
ShowMessageFace("",0,0,2,14)
ShowMessage("\\n<Luka>Ah, aaaah!!")
ShowMessageFace("",0,0,2,15)
ShowMessage("Her flesh presses into me.")
ShowMessage("But it isn't just mindlessly squeezing me...")
ShowMessageFace("",0,0,2,16)
ShowMessage("Each time she tenses her lower body, I can feel her press on me...")
ShowMessage("And every time she exhales, it gets slightly looser.")
ShowMessageFace("",0,0,2,17)
ShowMessage("Her back and forth squeezing is clearly aiming to give me pleasure.")
ShowMessage("Every time she squeezes me, it feels like I could just climax right there.")
ShowMessageFace("kooni_fc1",0,0,2,18)
ShowMessage("\\n<Shizuku>Aha, it's like my pussy is bullying your penis. ♪\nHooora... Hooora... I'll make it even tighter...♪")
ShowMessageFace("",0,0,2,19)
ShowMessage("\\n<Luka>Unnngh... Ah, aaaah...!")
ShowMessageFace("",0,0,2,20)
ShowMessage("A crazy feeling of oppression assaults my penis.")
ShowMessage("My body trembles every time she even slightly loosens up.")
ShowMessageFace("",0,0,2,21)
ShowMessage("In only moments, I feel myself nearing an edge.")
ShowMessage("My waist is dominated by a sweet sensation...")
ShowMessageFace("",0,0,2,22)
ShowMessage("\\n<Luka>Ah, Don't...I'm coming...!")
ShowMessageFace("kooni_fc1",0,0,2,23)
ShowMessage("\\n<Shizuku>Aree? Already coming...?\nI haven't even used my finishing move yet...")
ShowMessageFace("kooni_fc1",0,0,2,24)
ShowMessage("\\n<Shizuku>Well, whatever. Come~♪")
ShowMessageFace("",0,0,2,25)
ShowMessage("In the next instant, she squeezes me even tighter than before.")
ShowMessage("Her soft flesh presses down on my penis in ecstasy.")
ShowMessageFace("",0,0,2,26)
ShowMessage("My mind goes blank as I savor the pure white feeling.")
ShowMessageFace("",0,0,2,27)
ShowMessage("\\n<Luka>Ah... Aaaaaah!!")
RunCommonEvent(104)
PictureDisplay(5,"ev_kooni_h11",0,0,0,0,100,100,255,0)
RunCommonEvent(105)
ShowMessageFace("",0,0,2,28)
ShowMessage("I come inside of Shizuku in no time.")
ShowMessage("My semen gushes into her narrow vagina.")
ShowMessageFace("kooni_fc1",0,0,2,29)
ShowMessage("\\n<Shizuku>Ahaha, it's leaking. ♪\nI'll squeeze you properly, right until the end...")
ShowMessageFace("",0,0,2,30)
ShowMessage("\\n<Luka>Nnngh...")
ShowMessageFace("",0,0,2,31)
ShowMessage("Her vagina contracts in a milking motion.")
ShowMessage("Doing that, she squeezes every drop of semen into her.")
PictureDisplay(5,"ev_kooni_h12",0,0,0,0,100,100,255,0)
ShowMessageFace("kooni_fc1",0,0,2,32)
ShowMessage("\\n<Shizuku>My pussy was super tight, wasn't it?\nBut I haven't even gotten serious yet...")
ShowMessageFace("kooni_fc1",0,0,2,33)
ShowMessage("\\n<Shizuku>My super finisher move is even more amazing.\nI'll let you have a taste of it now. ♪")
ShowMessageFace("",0,0,2,34)
ShowMessage("\\n<Luka>Th...that...")
ShowMessageFace("",0,0,2,35)
ShowMessage("Even more amazing than how tight she was before...")
ShowMessage("Just what is she going to do...?")
ShowMessageFace("",0,0,2,36)
ShowMessage("I tremble in fear, but part of my body gets excited at what's to come.")
ShowMessage("Just how good is it going to feel...?")
ShowMessageFace("kooni_fc1",0,0,2,37)
ShowMessage("\\n<Shizuku>Ok, let's start. ♪\nFinishing move, Sack Bind~♪")
ShowMessageFace("",0,0,2,38)
ShowMessage("In the next moment, Shizuku's vagina shrinks!")
ShowMessage("It presses down to extreme tightness around my glans and base...")
ShowMessageFace("",0,0,2,39)
ShowMessage("\\n<Luka>Wh-What is this... Ah, aaah...\nAaaaaah!!")
ShowMessageFace("",0,0,2,40)
ShowMessage("Deep inside of her, and at her entrance, it's like two vises are clamping on me.")
ShowMessage("But it doesn't just stay tight, it's pulsing back and forth from extreme tightness and looseness...")
ShowMessageFace("kooni_fc1",0,0,2,41)
ShowMessage("\\n<Shizuku>Hora, hora, it's a double tightening. ♪\nYou absolutely can't endure this at all, can you...?")
ShowMessageFace("",0,0,2,42)
ShowMessage("\\n<Luka>I-Incredible... Hya, Aaaaaah!!")
ShowMessageFace("",0,0,2,43)
ShowMessage("The tip of my penis is being squeezed hard deep inside her.")
ShowMessage("This incredible pleasure would force anyone to heaven.")
ShowMessageFace("",0,0,2,44)
ShowMessage("\\n<Luka>N-noooo... Ah, aaaaaah!!")
ShowMessageFace("",0,0,2,45)
ShowMessage("Writhing in ecstasy, I push my waist up into that sexy touch.")
ShowMessage("A crazy feeling of release bubbles and explodes within me.")
RunCommonEvent(104)
PictureDisplay(5,"ev_kooni_h13",0,0,0,0,100,100,255,0)
RunCommonEvent(105)
ShowMessageFace("",0,0,2,46)
ShowMessage("And in no time at all, I come inside of Shizuku again.")
ShowMessage("Tasting her tightness even during my orgasm, I get drunk on the feeling of release.")
ShowMessageFace("",0,0,2,47)
ShowMessage("\\n<Luka>Ngh...Ugh...")
ShowMessageFace("kooni_fc1",0,0,2,48)
ShowMessage("\\n<Shizuku>Ahaha, I made you come with my Super Bind skill. ♪\nDid you love my finishing move that much...?")
ShowMessageFace("",0,0,2,49)
ShowMessage("Shizuku smiles happily, and brings her face next to mine.")
PictureDisplay(5,"ev_kooni_h14",0,0,0,0,100,100,255,0)
ShowMessageFace("kooni_fc1",0,0,2,50)
ShowMessage("\\n<Shizuku>Nnn...")
ShowMessageFace("",0,0,2,51)
ShowMessage("Her soft lips press against my own.")
ShowMessage("A soft, relaxing bliss spreads from my brain to my body.")
ShowMessageFace("",0,0,2,52)
ShowMessage("A fascinating kiss that steals away my heart.")
ShowMessage("At the same time, she keeps squeezing my penis inside her.")
ShowMessageFace("kooni_fc1",0,0,2,53)
ShowMessage("\\n<Shizuku>*Kiss* *Kiss*")
ShowMessageFace("",0,0,2,54)
ShowMessage("\\n<Luka>Nnnnn...")
ShowMessageFace("",0,0,2,55)
ShowMessage("While tasting Shizuku's sweet kiss, I feel her crazy tightness.")
ShowMessage("My body twitches as I feel myself tasting heaven again.")
RunCommonEvent(104)
PictureDisplay(5,"ev_kooni_h16",0,0,0,0,100,100,255,0)
RunCommonEvent(105)
ShowMessageFace("",0,0,2,56)
ShowMessage("At the same time Shizuku's lips part from me, I come inside of her.")
ShowMessage("Tasting ecstasy, I devote all of my semen to her.")
ShowMessageFace("",0,0,2,57)
ShowMessage("Her vagina is filled with my squeezed semen.")
ShowMessage("I'm completely subjugated as a man...")
246(2)
PictureDisplay(5,"ev_kooni_h17",0,0,0,0,100,100,255,0)
ShowMessageFace("kooni_fc1",0,0,2,58)
ShowMessage("\\n<Shizuku>Ahaha, how did my kiss taste?\nThe charm magic should make you melt. ♪")
ShowMessageFace("",0,0,2,59)
ShowMessage("\\n<Luka>Huaaa... Aaah...")
ShowMessageFace("",0,0,2,60)
ShowMessage("I've already been made completely weak by Shizuku.")
ShowMessage("By her tight vagina, and magic kiss...")
ShowMessageFace("kooni_fc1",0,0,2,61)
ShowMessage("\\n<Shizuku>All right then, you're going to be my practice partner.\nNext time your semen collects up, come back to me.")
ShowMessageFace("",0,0,2,62)
ShowMessage("\\n<Luka>......")
ShowMessageFace("",0,0,2,63)
ShowMessage("Thus, I'm treated like Shizuku's practice partner.")
ShowMessageFace("",0,0,2,64)
ShowMessage("But now I know what her technique is.")
ShowMessage("I may be going back to her again...")
221()
PictureClear(5)
ShowMessageFace("",0,0,2,65)
ShowMessage("......")
242(2)
Wait(120)
241(bytes(0x04,0x08,0x6f,0x3a,0x0d,0x52,0x50,0x47,0x3a,0x3a,0x42,0x47,0x4d,0x08,0x3a,0x0a,0x40,0x6e,0x61,0x6d,0x65,0x49,0x22,0x0c,0x63,0x61,0x73,0x74,0x6c,0x65,0x36,0x06,0x3a,0x06,0x45,0x54,0x3a,0x0c,0x40,0x76,0x6f,0x6c,0x75,0x6d,0x65,0x69,0x69,0x3a,0x0b,0x40,0x70,0x69,0x74,0x63,0x68,0x69,0x69))
0()
