// EVENT 4867
Name "保留：ハコイリ2"

PictureDisplay(5,"80_hakoiri_st02",0,0,0,0,100,100,0,0)
PictureMove(5,null,0,0,0,0,100,100,255,0,30,true)
ShowMessageFace("hakoiri_fc1",0,0,2,1)
ShowMessage("【ステファニー】")
ShowMessage("あっ♪ いらっしゃいませ～♪")
ShowMessageFace("",0,0,2,2)
ShowMessage("【ルカ】")
ShowMessage("う、うん……お願い……")
ShowMessageFace("",0,0,2,3)
ShowMessage("こうして僕は、個室へと招き入れられた――")
221()
PictureDisplay(1,"bg195",0,0,0,0,100,100,255,0)
PictureDisplay(5,"ev_hakoiri_hb01",0,0,0,0,100,100,255,0)
222()
241(bytes(0x04,0x08,0x6f,0x3a,0x0d,0x52,0x50,0x47,0x3a,0x3a,0x42,0x47,0x4d,0x08,0x3a,0x0a,0x40,0x6e,0x61,0x6d,0x65,0x49,0x22,0x09,0x65,0x72,0x6f,0x31,0x06,0x3a,0x06,0x45,0x54,0x3a,0x0c,0x40,0x76,0x6f,0x6c,0x75,0x6d,0x65,0x69,0x69,0x3a,0x0b,0x40,0x70,0x69,0x74,0x63,0x68,0x69,0x69))
245(bytes(0x04,0x08,0x6f,0x3a,0x0d,0x52,0x50,0x47,0x3a,0x3a,0x42,0x47,0x53,0x08,0x3a,0x0a,0x40,0x6e,0x61,0x6d,0x65,0x49,0x22,0x1a,0x6d,0x6f,0x6e,0x5f,0x68,0x73,0x65,0x61,0x6e,0x32,0x31,0x5f,0x74,0x65,0x6e,0x74,0x61,0x63,0x6c,0x65,0x32,0x06,0x3a,0x06,0x45,0x54,0x3a,0x0c,0x40,0x76,0x6f,0x6c,0x75,0x6d,0x65,0x69,0x55,0x3a,0x0b,0x40,0x70,0x69,0x74,0x63,0x68,0x69,0x69))
ShowMessageFace("",0,0,2,4)
ShowMessage("ステファニーは触手でスカートをまくり、下半身の宝箱を見せ付けた。")
ShowMessage("その鍵穴部分には、異様な肉穴が備わっている――")
ShowMessageFace("hakoiri_fc1",1,0,2,5)
ShowMessage("【ステファニー】")
ShowMessage("ルールはひとつだけ……")
ShowMessage("この鍵穴におちんちん挿れて、いっぱいピストンすること。")
ShowMessageFace("hakoiri_fc1",1,0,2,6)
ShowMessage("【ステファニー】")
ShowMessage("鍵が開く前に、ガマンできずオモラシしちゃったら……")
ShowMessage("残念、チャレンジ失敗です。")
ShowMessageFace("hakoiri_fc1",1,0,2,7)
ShowMessage("【ステファニー】")
ShowMessage("チャレンジ料、ちょ～っとだけ頂いちゃいますけどぉ……")
ShowMessage("お宝ゲットしちゃったら元は取れますよ♪")
ShowMessageFace("",0,0,2,8)
ShowMessage("【ルカ】")
ShowMessage("そ、そんな……魔物と交わるなんて……")
ShowMessageFace("hakoiri_fc1",1,0,2,9)
ShowMessage("【ステファニー】")
ShowMessage("エッチじゃなくて鍵開けです。")
ShowMessage("だから、セーフですよぉ♪")
ShowMessageFace("hakoiri_fc1",1,0,2,10)
ShowMessage("【ステファニー】")
ShowMessage("ほら、とぉ～っても気持ちよくなれちゃうオマケ付き♪")
ShowMessage("やらないなんて、損ですよぉ……？")
ShowMessageFace("",0,0,2,11)
ShowMessage("【ルカ】")
ShowMessage("……………………")
ShowMessageFace("",0,0,2,12)
ShowMessage("淫らに誘うように、くちょくちょと蠢く肉穴。")
ShowMessage("すでに僕のモノは大きくなってしまっている――")
ShowMessageFace("hakoiri_fc1",1,0,2,13)
ShowMessage("【ステファニー】")
ShowMessage("あはっ♪ その気になっちゃいましたぁ？")
ShowMessage("ほら早く、お金を払ってチャレンジしましょう♪")
ShowMessageFace("",0,0,2,14)
ShowMessage("【ルカ】")
ShowMessage("それじゃあ、一回だけ……")
ShowMessage("中の宝物を得るためにね……")
ShowMessageFace("hakoiri_fc1",1,0,2,15)
ShowMessage("【ステファニー】")
ShowMessage("はぁい……お買い上げ、ありがとうございます♪")
ShowMessage("それじゃあ、どうぞぉ♪")
ShowMessageFace("",0,0,2,16)
ShowMessage("お金を受け取り、ステファニーはにんまりと笑う。")
ShowMessage("僕は宝箱に腰を押し付け、ひくひく蠢く肉穴にペニスを差し出し――")
245(bytes(0x04,0x08,0x6f,0x3a,0x0d,0x52,0x50,0x47,0x3a,0x3a,0x42,0x47,0x53,0x08,0x3a,0x0a,0x40,0x6e,0x61,0x6d,0x65,0x49,0x22,0x1a,0x6d,0x6f,0x6e,0x5f,0x68,0x73,0x65,0x61,0x6e,0x32,0x31,0x5f,0x74,0x65,0x6e,0x74,0x61,0x63,0x6c,0x65,0x32,0x06,0x3a,0x06,0x45,0x54,0x3a,0x0c,0x40,0x76,0x6f,0x6c,0x75,0x6d,0x65,0x69,0x55,0x3a,0x0b,0x40,0x70,0x69,0x74,0x63,0x68,0x69,0x69))
PictureDisplay(5,"ev_hakoiri_hb02",0,0,0,0,100,100,255,0)
ShowMessageFace("",0,0,2,17)
ShowMessage("そして、一気に中へと挿入した！")
ShowMessage("艶めかしい肉壁のうねりが、じゅるじゅるとペニスに絡み付く――")
ShowMessageFace("hakoiri_fc1",1,0,2,18)
ShowMessage("【ステファニー】")
ShowMessage("あはっ♪ チンポ来ちゃったぁ♪")
ShowMessageFace("",0,0,2,19)
ShowMessage("【ルカ】")
ShowMessage("あ……う、うぅぅ……")
ShowMessageFace("",0,0,2,20)
ShowMessage("あまりに艶めかしい感触に、僕は硬直してしまった。")
ShowMessage("ぬめった柔肉がペニスを押し包み、甘く締め付けてくる――")
ShowMessageFace("hakoiri_fc1",1,0,2,21)
ShowMessage("【ステファニー】")
ShowMessage("ほら♪ もっとズッポズッポしてイイんですよ？")
ShowMessage("そんなんじゃ、鍵穴開きませんよ♪")
ShowMessageFace("",0,0,2,22)
ShowMessage("挿入した直後に、腰を動かせなくなった僕。")
ShowMessage("その情けない姿を見たステファニーは、にんまりと笑い――")
ShowMessageFace("hakoiri_fc1",1,0,2,23)
ShowMessage("【ステファニー】")
ShowMessage("ほ～ら、おっぱい見せてあげますね♪")
ShowMessage("これ、本当はお金もらって見せてあげるサービスなんですよ？")
ShowMessageFace("",0,0,2,24)
ShowMessage("みずみずしい胸を露出させ、ステファニーはくすくすと笑う。")
ShowMessageFace("hakoiri_fc1",1,0,2,25)
ShowMessage("【ステファニー】")
ShowMessage("これで、がんばる気になれましたぁ？")
ShowMessage("腰も動かせないままオモラシって、最高に情けないですよぉ？")
ShowMessageFace("",0,0,2,26)
ShowMessage("【ルカ】")
ShowMessage("う……ぐ……")
ShowMessageFace("",0,0,2,27)
ShowMessage("ステファニーの言葉に煽られるがまま、僕は腰を動かし始めた。")
ShowMessage("柔肉のうねる肉穴を、ペニスが恐る恐る往復する――")
ShowMessageFace("",0,0,2,28)
ShowMessage("【ルカ】")
ShowMessage("はぅ……あ、あぁっ……！")
ShowMessageFace("hakoiri_fc1",1,0,2,29)
ShowMessage("【ステファニー】")
ShowMessage("くすっ……頑張っちゃいますねぇ♪")
ShowMessageFace("",0,0,2,30)
ShowMessage("僕の様子を面白がるような目で眺め、ステファニーはにんまり笑った。")
ShowMessageFace("hakoiri_fc1",1,0,2,31)
ShowMessage("【ステファニー】")
ShowMessage("お金を払って、サセてもらってる男のヒトの顔って……")
ShowMessage("情けなくてたまらないですよねぇ♪")
ShowMessageFace("",0,0,2,32)
ShowMessage("【ルカ】")
ShowMessage("な、中が……あぅぅっ！")
ShowMessageFace("",0,0,2,33)
ShowMessage("ぐちゅぐちゅとうねり、収縮する肉穴。")
ShowMessage("艶めかしい刺激に、思わず腰の動きが鈍る。")
ShowMessageFace("hakoiri_fc1",1,0,2,34)
ShowMessage("【ステファニー】")
ShowMessage("ほ～ら、頑張ってくださ～い♪")
ShowMessage("まだまだガマンしなきゃダメですよぉ……？")
ShowMessageFace("hakoiri_fc1",1,0,2,35)
ShowMessage("【ステファニー】")
ShowMessage("本番はぁ……これからなんですからっ♪")
ShowMessageFace("",0,0,2,36)
ShowMessage("きゅぅっ……と肉穴が締まった。")
ShowMessage("ペニスを甘く搾り、とろけそうな快楽を与えてくる。")
ShowMessageFace("",0,0,2,37)
ShowMessage("【ルカ】")
ShowMessage("う……あぁぁぁっ！")
ShowMessageFace("",0,0,2,38)
ShowMessage("一気に腰の奥からこみ上げてくる射精感。")
ShowMessage("中を締められただけで、たちまちイってしまいそうになる――")
ShowMessageFace("hakoiri_fc1",1,0,2,39)
ShowMessage("【ステファニー】")
ShowMessage("ほらぁ♪ ほらぁ……♪")
ShowMessageFace("hakoiri_fc1",1,0,2,40)
ShowMessage("【ステファニー】")
ShowMessage("もうダメなんじゃないですかぁ？")
ShowMessage("オモラシしちゃうんじゃないですかぁ？")
ShowMessageFace("",0,0,2,41)
ShowMessage("まるで面白がるように、ステファニーは肉穴の内部を収縮させる。")
ShowMessage("ペニスは何度も締め付けられ、たちまちのうちに弱らされた。")
ShowMessageFace("",0,0,2,42)
ShowMessage("【ルカ】")
ShowMessage("あ……あぁぁっ……だ、だめぇ……")
ShowMessageFace("hakoiri_fc1",1,0,2,43)
ShowMessage("【ステファニー】")
ShowMessage("あ～あ、もうオモラシしちゃいますね～♪")
ShowMessage("はぁぃ、テイッシュの準備もできましたよ～♪")
ShowMessageFace("",0,0,2,44)
ShowMessage("【ルカ】")
ShowMessage("う、うぅぅっ……ま、まだ……")
ShowMessageFace("",0,0,2,45)
ShowMessage("腰に力を入れ、必死で射精をこらえようとするが――")
ShowMessage("艶めかしい締め付けにさらされた肉棒は、快楽に屈しようとしていた。")
ShowMessageFace("hakoiri_fc1",1,0,2,46)
ShowMessage("【ステファニー】")
ShowMessage("残念、もうダメです～♪")
ShowMessage("おちんちんの気持ちよさに負けちゃいました～♪")
ShowMessageFace("",0,0,2,47)
ShowMessage("こみ上げる放出感が抑えられず――")
ShowMessage("甘い快楽に、身を委ねてしまい――")
ShowMessageFace("",0,0,2,48)
ShowMessage("【ルカ】")
ShowMessage("もうダメぇ……あ、あぁぁぁ……")
RunCommonEvent(104)
PictureDisplay(5,"ev_hakoiri_hb03",0,0,0,0,100,100,255,0)
RunCommonEvent(105)
ShowMessageFace("",0,0,2,49)
ShowMessage("とうとう耐えきれず、射精してしまった。")
ShowMessage("ステファニーの鍵穴に、精液がドクドクと注ぎ込まれていく――")
ShowMessageFace("hakoiri_fc1",1,0,2,50)
ShowMessage("【ステファニー】")
ShowMessage("あはっ、でちゃったぁ♪")
ShowMessageFace("hakoiri_fc1",1,0,2,51)
ShowMessage("【ステファニー】")
ShowMessage("あんなに必死こいてガマンしてたのに……")
ShowMessage("オモラシ、ぴゅっぴゅって漏れちゃったぁ♪")
ShowMessageFace("",0,0,2,52)
ShowMessage("精液を放出しながら、快感で体を緩ませている間――")
ShowMessage("ステファニーは、見下すようにくすくす笑い続けたのだった。")
ShowMessageFace("hakoiri_fc1",1,0,2,53)
ShowMessage("【ステファニー】")
ShowMessage("でもぉ……あなたの精液、コンドームで受け止めてました。")
ShowMessage("挿入直前にハメたの、気付かなかったでしょ……？")
ShowMessageFace("",0,0,2,54)
ShowMessage("ステファニーは、肉穴からずるりとコンドームを取り出していた。")
ShowMessage("そこに溜まっていたのは、僕が放った精液だ。")
ShowMessageFace("",0,0,2,55)
ShowMessage("いつの間にやら、全く気付かないうちに――")
ShowMessage("ステファニーは、コンドームを使用していたらしい。")
ShowMessageFace("hakoiri_fc1",1,0,2,56)
ShowMessage("【ステファニー】")
ShowMessage("ともかく、鍵開けチャレンジは失敗でしたねぇ♪")
ShowMessage("もう一回お金を払って、また挑戦してみますかぁ？")
ShowMessageFace("",0,0,2,57)
ShowMessage("【ルカ】")
ShowMessage("……………………")
ShowMessageFace("",0,0,2,58)
ShowMessage("僕のモノは、まだ鍵穴に収まったまま。")
ShowMessage("柔肉は艶めかしく動き、ペニスにまとわりついている。")
ShowMessageFace("hakoiri_fc1",1,0,2,59)
ShowMessage("【ステファニー】")
ShowMessage("イヤならいいんですけどぉ……")
ShowMessage("どうせ、まだチャレンジしてみたいんでしょ？")
ShowMessageFace("hakoiri_fc1",1,0,2,60)
ShowMessage("【ステファニー】")
ShowMessage("……今度はナマで♪")
ShowMessageFace("",0,0,2,61)
ShowMessage("ステファニーはコンドームをれろりと舐め、その中の白濁を舌に垂らした。")
ShowMessage("僕の放った精液を、丹念に味わっているのだ――")
ShowMessageFace("hakoiri_fc1",1,0,2,62)
ShowMessage("【ステファニー】")
ShowMessage("んっ、ちゅぱっ……おいしっ♪")
ShowMessage("……ねぇ、どうされますかぁ～？")
ShowMessageFace("hakoiri_fc1",1,0,2,63)
ShowMessage("【ステファニー】")
ShowMessage("お金を払えば、再チャレンジ……")
ShowMessageFace("",0,0,2,64)
ShowMessage("艶めかしい誘惑を受け、僕は――")
ShowMessage("憑かれたように、腰の動きを再開させていた。")
PictureDisplay(5,"ev_hakoiri_hb04",0,0,0,0,100,100,255,0)
ShowMessageFace("hakoiri_fc1",1,0,2,65)
ShowMessage("【ステファニー】")
ShowMessage("くすっ……あ～あ、始めちゃいましたね♪")
ShowMessage("再度のお買い上げ、ありがとうございます♪")
ShowMessageFace("",0,0,2,66)
ShowMessage("ステファニーは触手を伸ばし、僕の所持金から硬貨を抜き取る。")
ShowMessage("チャレンジ代金だから、全く問題ない取引であるはずだ。")
ShowMessageFace("",0,0,2,67)
ShowMessage("それよりも、艶めかしい柔肉の感触がペニスをとろけさせる。")
ShowMessage("先程までより甘く、肉棒を溶かすような蠕動だ――")
ShowMessageFace("",0,0,2,68)
ShowMessage("【ルカ】")
ShowMessage("はぅぅ……き、気持ちいい……")
ShowMessageFace("hakoiri_fc1",1,0,2,69)
ShowMessage("【ステファニー】")
ShowMessage("ほ～ら、生だとやっぱりスゴいでしょ？")
ShowMessage("ガマン出来ないでしょ？")
ShowMessageFace("hakoiri_fc1",1,0,2,70)
ShowMessage("【ステファニー】")
ShowMessage("ゴム付きでも無理だったのに……")
ShowMessage("ガマンなんて、出来るわけないですよねっ♪")
ShowMessageFace("",0,0,2,71)
ShowMessage("【ルカ】")
ShowMessage("う……うぐぐっ……")
ShowMessageFace("hakoiri_fc1",1,0,2,72)
ShowMessage("【ステファニー】")
ShowMessage("本当はぁ、分かってましたよね……？")
ShowMessage("ガマン出来ないって分かってても、お金払ったんですよね？")
ShowMessageFace("",0,0,2,73)
ShowMessage("【ルカ】")
ShowMessage("ち、違う……鍵を開けるために……")
ShowMessageFace("hakoiri_fc1",1,0,2,74)
ShowMessage("【ステファニー】")
ShowMessage("あらあら？ そうなんですかぁ……？")
ShowMessage("そうですね、お宝のためですよね～♪")
ShowMessageFace("hakoiri_fc1",1,0,2,75)
ShowMessage("【ステファニー】")
ShowMessage("それじゃあ、がんばって下さい♪")
ShowMessage("その鍵を開けるために……ねっ♪")
ShowMessageFace("",0,0,2,76)
ShowMessage("【ルカ】")
ShowMessage("う……うううっ……")
ShowMessageFace("",0,0,2,77)
ShowMessage("必死で腰を動かし、肉穴の中を掻き回す。")
ShowMessage("甘い締め付けとうねりを味わい、心がとろけてしまいそうになる――")
ShowMessageFace("hakoiri_fc1",1,0,2,78)
ShowMessage("【ステファニー】")
ShowMessage("あははっ、もう止まりませんね♪")
ShowMessage("お金払って、あたしの穴に夢中になっちゃってぇ……♪")
ShowMessageFace("",0,0,2,79)
ShowMessage("【ルカ】")
ShowMessage("あ……はぅぅ……気持ちいいよぉ……")
ShowMessageFace("",0,0,2,80)
ShowMessage("ぐちゅぐちゅとうねる肉壁、扱きたてられるペニス。")
ShowMessage("その感触に酔いしれ、僕は夢中で腰を動かし続ける。")
ShowMessageFace("hakoiri_fc1",1,0,2,81)
ShowMessage("【ステファニー】")
ShowMessage("もう、そんなにがっついちゃってぇ……♪")
ShowMessageFace("hakoiri_fc1",1,0,2,82)
ShowMessage("【ステファニー】")
ShowMessage("お金で買ったオマンコ、気持ちいいですか？")
ShowMessage("中の感触、たっぷり味わっちゃってますかぁ……？")
ShowMessageFace("",0,0,2,83)
ShowMessage("【ルカ】")
ShowMessage("はぅ……うぅぅっ……")
ShowMessageFace("hakoiri_fc1",1,0,2,84)
ShowMessage("【ステファニー】")
ShowMessage("はぁい、とっても上手ですよ～♪")
ShowMessage("どんどんチンポ出し入れして、お金捨ててくださいねっ♪")
ShowMessageFace("",0,0,2,85)
ShowMessage("【ルカ】")
ShowMessage("あ……あぁぁっ！")
ShowMessageFace("",0,0,2,86)
ShowMessage("僕は思わず宝箱にしがみつき、体を震わせた。")
ShowMessage("快楽がこみ上げ、ペニスがびくびくと脈動する。")
ShowMessageFace("hakoiri_fc1",1,0,2,87)
ShowMessage("【ステファニー】")
ShowMessage("あはっ……何してるんですか、恥ずかしい……♪")
ShowMessage("もうフィニッシュなんて、必死すぎ～♪")
ShowMessageFace("",0,0,2,88)
ShowMessage("ステファニーの嘲笑を受けながら、僕はぶるっと体を震わせ――")
ShowMessageFace("",0,0,2,89)
ShowMessage("【ルカ】")
ShowMessage("あぁぁぁ……")
RunCommonEvent(104)
PictureDisplay(5,"ev_hakoiri_hb05",0,0,0,0,100,100,255,0)
PictureDisplay(5,"ev_hakoiri_ha12",0,0,0,0,100,100,255,0)
RunCommonEvent(105)
ShowMessageFace("",0,0,2,90)
ShowMessage("快楽のままに、精を放っていた。")
ShowMessage("艶めかしい鍵穴に、精子がたっぷりと捧げられる――")
ShowMessageFace("hakoiri_fc1",1,0,2,91)
ShowMessage("【ステファニー】")
ShowMessage("うふふっ、出しちゃったぁ……♪")
ShowMessage("おいしい精液、ナマでおまんこに漏らしちゃってますよぉ♪")
ShowMessageFace("hakoiri_fc1",1,0,2,92)
ShowMessage("【ステファニー】")
ShowMessage("こんなに気持ちよくて、美味しくて、お金儲けできるなんて♪")
ShowMessage("男のヒトにおまんこ買わせるの、最高……♪")
PictureDisplay(5,"ev_hakoiri_hb06",0,0,0,0,100,100,255,0)
ShowMessageFace("hakoiri_fc1",0,0,2,93)
ShowMessage("【ステファニー】")
ShowMessage("……")
RunCommonEvent(104)
PictureDisplay(5,"ev_hakoiri_hb07",0,0,0,0,100,100,255,0)
RunCommonEvent(105)
ShowMessageFace("hakoiri_fc1",0,0,2,94)
ShowMessage("【ステファニー】")
ShowMessage("……")
PictureDisplay(5,"ev_hakoiri_hb08",0,0,0,0,100,100,255,0)
ShowMessageFace("hakoiri_fc1",0,0,2,95)
ShowMessage("【ステファニー】")
ShowMessage("……")
PictureDisplay(5,"ev_hakoiri_hb09",0,0,0,0,100,100,255,0)
ShowMessageFace("hakoiri_fc1",0,0,2,96)
ShowMessage("【ステファニー】")
ShowMessage("……")
PictureDisplay(5,"ev_hakoiri_hb10",0,0,0,0,100,100,255,0)
ShowMessageFace("hakoiri_fc1",0,0,2,97)
ShowMessage("【ステファニー】")
ShowMessage("……")
ShowMessageFace("",0,0,2,98)
ShowMessage("【ルカ】")
ShowMessage("あぁぁぁ……")
ShowMessageFace("",0,0,2,99)
ShowMessage("艶めかしい感触を味わいながら、精液を放出する悦び――")
ShowMessage("僕は体をびくびくと震わせ、その快感を思う存分に味わった。")
ShowMessageFace("",0,0,2,100)
ShowMessage("お金を払い、チャレンジの名目で快楽を味わう――")
ShowMessage("あまりに惨めな交わりを、受け入れてしまったのだ。")
246(2)
PictureDisplay(5,"ev_hakoiri_ha13",0,0,0,0,100,100,255,0)
ShowMessageFace("hakoiri_fc1",1,0,2,101)
ShowMessage("【ステファニー】")
ShowMessage("はぁい、ご利用ありがとうございましたぁ♪")
ShowMessage("気持ちよかったですよね、うふふっ。")
ShowMessageFace("hakoiri_fc1",1,0,2,102)
ShowMessage("【ステファニー】")
ShowMessage("またチャレンジしたくなったら、いつでも来て下さいね♪")
ShowMessage("お金も精液も、たっぷり搾ってあげますから♪")
ShowMessageFace("",0,0,2,103)
ShowMessage("【ルカ】")
ShowMessage("……………………")
ShowMessageFace("",0,0,2,104)
ShowMessage("この快楽を忘れる事はできそうにない。")
ShowMessage("ステファニーの元に通い、お金を払ってしまいそうだ……")
221()
PictureClear(5)
ShowMessageFace("",0,0,2,105)
ShowMessage("......")
RunCommonEvent(3998)
0()
