// EVENT 4236
Name "Roper Girl 1"

If(0,25,1)
 221()
 PictureClear(5)
 PictureClear(6)
 ShowMessageFace("",0,0,2,0)
 ShowMessage("......")
 242(2)
 Wait(120)
 241(bytes(0x04,0x08,0x6f,0x3a,0x0d,0x52,0x50,0x47,0x3a,0x3a,0x42,0x47,0x4d,0x08,0x3a,0x0a,0x40,0x6e,0x61,0x6d,0x65,0x49,0x22,0x0c,0x63,0x61,0x73,0x74,0x6c,0x65,0x36,0x06,0x3a,0x06,0x45,0x54,0x3a,0x0c,0x40,0x76,0x6f,0x6c,0x75,0x6d,0x65,0x69,0x69,0x3a,0x0b,0x40,0x70,0x69,0x74,0x63,0x68,0x69,0x69))
 EndEventProcessing()
 0()
EndIf()
PictureDisplay(5,"80_ropa_st01",0,0,0,0,100,100,255,0)
ShowMessageFace("ropa_fc1",0,0,2,1)
ShowMessage("\\n<Cindy>You want me to pleasure you?")
ShowMessageFace("",0,0,2,2)
ShowMessage("\\n<Luka>Y-yes...")
PictureDisplay(5,"80_ropa_st02",0,0,0,0,100,100,255,0)
ShowMessageFace("ropa_fc1",1,0,2,3)
ShowMessage("\\n<Cindy>Okay, come to my room...\nWouldn't want anyone to see us...")
ShowMessageFace("",0,0,2,4)
ShowMessage("Thus, I'm invited back to Cindy's room. How badly am I going to regret this--")
221()
PictureDisplay(1,"bg195",0,0,0,0,100,100,255,0)
PictureDisplay(5,"80_ropa_st02",0,0,0,0,100,100,255,0)
222()
241(bytes(0x04,0x08,0x6f,0x3a,0x0d,0x52,0x50,0x47,0x3a,0x3a,0x42,0x47,0x4d,0x08,0x3a,0x0a,0x40,0x6e,0x61,0x6d,0x65,0x49,0x22,0x09,0x65,0x72,0x6f,0x31,0x06,0x3a,0x06,0x45,0x54,0x3a,0x0c,0x40,0x76,0x6f,0x6c,0x75,0x6d,0x65,0x69,0x69,0x3a,0x0b,0x40,0x70,0x69,0x74,0x63,0x68,0x69,0x69))
ShowMessageFace("ropa_fc1",1,0,2,5)
ShowMessage("\\n<Cindy>So you want pleasure... Here we go...")
250(bytes(0x04,0x08,0x6f,0x3a,0x0c,0x52,0x50,0x47,0x3a,0x3a,0x53,0x45,0x08,0x3a,0x0a,0x40,0x6e,0x61,0x6d,0x65,0x49,0x22,0x16,0x6d,0x6f,0x6e,0x5f,0x65,0x72,0x6f,0x5f,0x6d,0x61,0x6b,0x69,0x74,0x75,0x6b,0x69,0x33,0x06,0x3a,0x06,0x45,0x54,0x3a,0x0b,0x40,0x70,0x69,0x74,0x63,0x68,0x69,0x69,0x3a,0x0c,0x40,0x76,0x6f,0x6c,0x75,0x6d,0x65,0x69,0x69))
ShowMessageFace("",0,0,2,6)
ShowMessage("Cindy's numerous tentacles reach out and wrap around my body!")
ShowMessageFace("",0,0,2,7)
ShowMessage("\\n<Luka>Ah, aaah...")
PictureDisplay(5,"ev_ropa_h1",0,0,0,0,100,100,255,0)
ShowMessageFace("",0,0,2,8)
ShowMessage("Pulled by her tentacles, I'm forced against her body.")
ShowMessage("Her soft body is covered in a sticky mucus.")
ShowMessageFace("",0,0,2,9)
ShowMessage("The mucus starts to cover my body...")
ShowMessage("This fluid can't be...")
ShowMessageFace("ropa_fc1",1,0,2,10)
ShowMessage("\\n<Cindy>With my digestive juices, I'll slowly melt you...")
ShowMessageFace("",0,0,2,11)
ShowMessage("\\n<Luka>W-wait, hold on!\nYou're talking about killing me!")
ShowMessageFace("",0,0,2,12)
ShowMessage("While screaming, I struggle violently.")
ShowMessage("But her tentacles wrap tighter around me, stopping my movement.")
ShowMessageFace("",0,0,2,13)
ShowMessage("My waist is pulled towards Cindy's lower body.")
ShowMessage("There, a hole opens its mouth as if inviting me inside.")
ShowMessageFace("",0,0,2,14)
ShowMessage("\\n<Luka>I, I thought we were allies...")
ShowMessageFace("ropa_fc1",1,0,2,15)
ShowMessage("\\n<Cindy>That doesn't mean I don't want to eat you... No one's watching so they'll never know it was me...")
ShowMessageFace("",0,0,2,16)
ShowMessage("\\n<Luka>No way! Please, no!!")
ShowMessageFace("",0,0,2,17)
ShowMessage("Unable to resist, she forces me into the hole.")
245(bytes(0x04,0x08,0x6f,0x3a,0x0d,0x52,0x50,0x47,0x3a,0x3a,0x42,0x47,0x53,0x08,0x3a,0x0a,0x40,0x6e,0x61,0x6d,0x65,0x49,0x22,0x1e,0x6d,0x6f,0x6e,0x5f,0x68,0x73,0x65,0x61,0x6e,0x31,0x32,0x5f,0x69,0x6e,0x6e,0x65,0x72,0x77,0x6f,0x72,0x6b,0x73,0x5f,0x63,0x32,0x06,0x3a,0x06,0x45,0x54,0x3a,0x0c,0x40,0x76,0x6f,0x6c,0x75,0x6d,0x65,0x69,0x55,0x3a,0x0b,0x40,0x70,0x69,0x74,0x63,0x68,0x69,0x69))
PictureDisplay(5,"ev_ropa_hb1",0,0,0,0,100,100,255,0)
ShowMessageFace("",0,0,2,18)
ShowMessage("My penis gets stuck inside of her!")
ShowMessageFace("",0,0,2,19)
ShowMessage("\\n<Luka>Aaahh... What is this...")
ShowMessageFace("",0,0,2,20)
ShowMessage("Countless tentacles are wriggling inside of her, rubbing my penis.")
ShowMessageFace("",0,0,2,21)
ShowMessage("It's as if I was inserted into a sea of wriggling tentacles.")
ShowMessageFace("",0,0,2,22)
ShowMessage("\\n<Luka>Faaa... It feels good...")
ShowMessageFace("",0,0,2,23)
ShowMessage("The pleasure overpowers me, causing me to feel even weaker.")
ShowMessageFace("ropa_fc1",1,0,2,24)
ShowMessage("\\n<Cindy>Making you weaker with pleasure...\nWhile doing so, I'll melt you...")
ShowMessageFace("",0,0,2,25)
ShowMessage("\\n<Luka>N...no... Haaa...!")
ShowMessageFace("",0,0,2,26)
ShowMessage("The pleasure drains me of any strength I had left in me.")
ShowMessageFace("",0,0,2,27)
ShowMessage("The wriggling tentacles inside of her stimulate me without mercy.")
ShowMessage("The pleasure too intense, my mind goes blank as the orgasm rises in me.")
ShowMessageFace("",0,0,2,28)
ShowMessage("\\n<Luka>Aaa... Coming! Ahhh!")
RunCommonEvent(104)
PictureDisplay(5,"ev_ropa_hb2",0,0,0,0,100,100,255,0)
RunCommonEvent(105)
ShowMessageFace("",0,0,2,29)
ShowMessage("As I explode inside of her wriggling hole, the digestive juices completely cover my body.")
ShowMessageFace("",0,0,2,30)
ShowMessage("Instead of pain, the horrible liquid is covering my body with a numbing pleasure.")
ShowMessageFace("",0,0,2,31)
ShowMessage("Terror fills me.")
ShowMessage("How can I feel such sweet pleasure as my body is dissolved...")
ShowMessageFace("",0,0,2,32)
ShowMessage("\\n<Luka>No! Let go! Help me... Someone...")
ShowMessageFace("ropa_fc1",1,0,2,33)
ShowMessage("\\n<Cindy>Melt while you feel the pleasure...")
245(bytes(0x04,0x08,0x6f,0x3a,0x0d,0x52,0x50,0x47,0x3a,0x3a,0x42,0x47,0x53,0x08,0x3a,0x0a,0x40,0x6e,0x61,0x6d,0x65,0x49,0x22,0x1e,0x6d,0x6f,0x6e,0x5f,0x68,0x73,0x65,0x61,0x6e,0x31,0x33,0x5f,0x69,0x6e,0x6e,0x65,0x72,0x77,0x6f,0x72,0x6b,0x73,0x5f,0x63,0x33,0x06,0x3a,0x06,0x45,0x54,0x3a,0x0c,0x40,0x76,0x6f,0x6c,0x75,0x6d,0x65,0x69,0x55,0x3a,0x0b,0x40,0x70,0x69,0x74,0x63,0x68,0x69,0x69))
ShowMessageFace("",0,0,2,34)
ShowMessage("The wriggling tentacles in her hole continue to force pleasure through me.")
ShowMessageFace("",0,0,2,35)
ShowMessage("This pleasure is not for reproduction, but only to restrain her prey.")
ShowMessageFace("",0,0,2,36)
ShowMessage("Weakening her prey, then melting them so she can eat...")
ShowMessageFace("",0,0,2,37)
ShowMessage("\\n<Luka>No... Help me...")
ShowMessageFace("ropa_fc1",1,0,2,38)
ShowMessage("\\n<Cindy>I won't let go... Just melt away like this...")
ShowMessageFace("",0,0,2,39)
ShowMessage("Her tentacles wrapped around me start to rub more of the digestive juices on me.")
ShowMessageFace("",0,0,2,40)
ShowMessage("At the same time, the hole where I'm inserted in her starts to fill up with the juices.")
ShowMessageFace("",0,0,2,41)
ShowMessage("\\n<Luka>Auu... No...")
ShowMessageFace("",0,0,2,42)
ShowMessage("Covered in her digestive juices, pleasure explodes in my dick.")
ShowMessageFace("",0,0,2,43)
ShowMessage("Forcing her prey to stay because of the pleasure...")
ShowMessage("I'm unable to resist it...")
ShowMessageFace("",0,0,2,44)
ShowMessage("\\n<Luka>Uaa... Coming again...")
RunCommonEvent(104)
PictureDisplay(5,"ev_ropa_hb3",0,0,0,0,100,100,255,0)
RunCommonEvent(105)
ShowMessageFace("",0,0,2,45)
ShowMessage("Unable to resist the stimulation, I come in her hole again.")
ShowMessage("The only purpose to stimulate me is to weaken me...")
ShowMessageFace("ropa_fc1",1,0,2,46)
ShowMessage("\\n<Cindy>It feels good, right?\nYour body is almost melted...")
ShowMessageFace("",0,0,2,47)
ShowMessage("\\n<Luka>Aaaa....")
ShowMessageFace("",0,0,2,48)
ShowMessage("Covered in her sticky digestive juices, I feel despair rise through me.")
ShowMessageFace("ropa_fc1",1,0,2,49)
ShowMessage("\\n<Cindy>Turn into mush...\nYou'll be nourishment for me... Be happy...")
ShowMessageFace("",0,0,2,50)
ShowMessage("\\n<Luka>Aaaa....")
ShowMessageFace("",0,0,2,51)
ShowMessage("As I feel my body melt away, so does the fear and despair.")
ShowMessage("Filling their place is a slow joy.")
ShowMessageFace("",0,0,2,52)
ShowMessage("Slowly melted, I start to feel happy at feeding Cindy.")
ShowMessage("At this rate, I'll be melted and eaten like an insect caught by a carnivorous plant...")
ShowMessageFace("",0,0,2,53)
ShowMessage("\\n<Luka>Faa... It feels good...")
ShowMessageFace("",0,0,2,54)
ShowMessage("Covered by the digestive juices, the tentacles continue to rub more of the juice all over me.")
ShowMessage("The forced stimulation is too much for me to endure.")
ShowMessageFace("",0,0,2,55)
ShowMessage("\\n<Luka>Ahiii!")
RunCommonEvent(104)
PictureDisplay(5,"ev_ropa_hb4",0,0,0,0,100,100,255,0)
RunCommonEvent(105)
ShowMessageFace("",0,0,2,56)
ShowMessage("As I feel myself slowly dissolving, I ejaculate inside of her hole again.")
ShowMessage("Completely hooked on the pleasure, the act of ejaculating in her feels incredible.")
ShowMessageFace("",0,0,2,59)
ShowMessage("\\n<Luka>Faa... Amazing...")
ShowMessageFace("ropa_fc1",1,0,2,60)
ShowMessage("\\n<Cindy>I'll melt your penis in this hole, too...\nWhile it's stuck inside me... Fufu...")
ShowMessageFace("",0,0,2,61)
ShowMessage("\\n<Luka>Aaaa....")
ShowMessageFace("",0,0,2,62)
ShowMessage("Gradually, my consciousness starts to melt along with my body.")
ShowMessageFace("ropa_fc1",1,0,2,63)
ShowMessage("\\n<Cindy>You aren't afraid anymore, right?\nBeing digested by me feels pleasant, doesn't it?")
ShowMessageFace("ropa_fc1",1,0,2,64)
ShowMessage("\\n<Cindy>While soaked in intoxication, melt into mush...")
ShowMessageFace("",0,0,2,65)
ShowMessage("\\n<Luka>Aaaa....")
If(0,95,0)
 246(2)
 221()
 ShowMessageFace("",0,0,2,66)
 ShowMessage("＊＊＊The rest of the vore scene is being skipped.＊＊＊")
 JumpToLabel("zzz")
 0()
EndIf()
PictureDisplay(5,"ev_ropa_h5",0,0,0,0,100,100,255,0)
ShowMessageFace("",0,0,2,67)
ShowMessage("She covers me with hundreds of tentacles, and forces me deeper into her.")
ShowMessage("Dripping with her digestive juices, the tentacles cover every inch of my body.")
ShowMessageFace("",0,0,2,68)
ShowMessage("The sweet pleasure covers my entire body as it's slowly dissolved and absorbed through her mucus covered membrane.")
ShowMessageFace("",0,0,2,69)
ShowMessage("My fading consciousness is stained with joy as I feel the pleasure from being digested.")
ShowMessageFace("ropa_fc1",1,0,2,70)
ShowMessage("\\n<Cindy>Mmm... You're delicious.\nYour body tastes very good...")
ShowMessageFace("",0,0,2,71)
ShowMessage("If Cindy is happy, I'm happy too...")
ShowMessage("She's eating my body...")
ShowMessageFace("",0,0,2,72)
ShowMessage("\\n<Luka>A....a...a...")
ShowMessageFace("",0,0,2,73)
ShowMessage("Like my body, my mind melts into mush.")
ShowMessageFace("",0,0,2,74)
ShowMessage("My slowly dissolving body is being absorbed by the Roper.")
ShowMessageFace("",0,0,2,75)
ShowMessage("I'm being melted...")
ShowMessage("I'm being eaten...")
221()
PictureClear(5)
PictureClear(6)
246(2)
ShowMessageFace("",0,0,2,76)
ShowMessage("Then...")
ShowMessage("Fully dissolved, I don't leave a single bone.")
ShowMessageFace("",0,0,2,77)
ShowMessage("While tasting the highest pleasure, I'm preyed on by my 'ally.'")
ShowMessageFace("",0,0,2,78)
ShowMessage("............")
242(2)
Wait(120)
ChangeVariable(1002,1002,0,0,0)
216(1)
355("forced_transfer(154,18,52)")
355("release_temp_actors")
355("$game_map.screen.clear")
0()
