// EVENT 4218
Name "High Slug Girl 3"

If(0,25,1)
 221()
 PictureClear(5)
 PictureClear(6)
 ShowMessageFace("",0,0,2,0)
 ShowMessage("......")
 242(2)
 Wait(120)
 241(bytes(0x04,0x08,0x6f,0x3a,0x0d,0x52,0x50,0x47,0x3a,0x3a,0x42,0x47,0x4d,0x08,0x3a,0x0a,0x40,0x6e,0x61,0x6d,0x65,0x49,0x22,0x0c,0x63,0x61,0x73,0x74,0x6c,0x65,0x36,0x06,0x3a,0x06,0x45,0x54,0x3a,0x0c,0x40,0x76,0x6f,0x6c,0x75,0x6d,0x65,0x69,0x69,0x3a,0x0b,0x40,0x70,0x69,0x74,0x63,0x68,0x69,0x69))
 EndEventProcessing()
 0()
EndIf()
PictureDisplay(5,"80_highslag_st01",0,0,0,0,100,100,255,0)
ShowMessageFace("highslag_fc1",0,0,2,1)
ShowMessage("\\n<Elizabeth>Hey, are you free?\nLet's take a little walk outside...")
ShowMessageFace("",0,0,2,2)
ShowMessage("\\n<Luka>Oh, okay.")
ShowMessageFace("",0,0,2,3)
ShowMessage("Elizabeth and I go for a walk.")
241(bytes(0x04,0x08,0x6f,0x3a,0x0d,0x52,0x50,0x47,0x3a,0x3a,0x42,0x47,0x4d,0x08,0x3a,0x0a,0x40,0x6e,0x61,0x6d,0x65,0x49,0x22,0x09,0x65,0x72,0x6f,0x31,0x06,0x3a,0x06,0x45,0x54,0x3a,0x0c,0x40,0x76,0x6f,0x6c,0x75,0x6d,0x65,0x69,0x69,0x3a,0x0b,0x40,0x70,0x69,0x74,0x63,0x68,0x69,0x69))
PictureDisplay(5,"ev_highslag_hc16",0,0,0,0,100,100,0,0)
PictureMove(5,null,0,0,0,0,100,100,255,0,30,true)
245(bytes(0x04,0x08,0x6f,0x3a,0x0d,0x52,0x50,0x47,0x3a,0x3a,0x42,0x47,0x53,0x08,0x3a,0x0a,0x40,0x6e,0x61,0x6d,0x65,0x49,0x22,0x1e,0x6d,0x6f,0x6e,0x5f,0x68,0x73,0x65,0x61,0x6e,0x31,0x31,0x5f,0x69,0x6e,0x6e,0x65,0x72,0x77,0x6f,0x72,0x6b,0x73,0x5f,0x63,0x31,0x06,0x3a,0x06,0x45,0x54,0x3a,0x0c,0x40,0x76,0x6f,0x6c,0x75,0x6d,0x65,0x69,0x55,0x3a,0x0b,0x40,0x70,0x69,0x74,0x63,0x68,0x69,0x69))
ShowMessageFace("highslag_fc1",0,0,2,4)
ShowMessage("\\n<Elizabeth>You're completely captive to my mating...")
ShowMessageFace("",0,0,2,5)
ShowMessage("\\n<Luka>Nnngh...That feels good...")
ShowMessageFace("",0,0,2,6)
ShowMessage("My penis is deep inside of Elizabeth's reproductive organ.")
ShowMessage("My mind and body feel like it could melt away in her slimy insides.")
ShowMessageFace("highslag_fc1",0,0,2,7)
ShowMessage("\\n<Elizabeth>You're sucking on my tits, just like a baby...")
ShowMessageFace("",0,0,2,8)
ShowMessage("\\n<Luka>Nnnn...")
ShowMessageFace("",0,0,2,9)
ShowMessage("Elizabeth's soft breasts fill my vision, her taste blissful.")
ShowMessage("I'm drunk on this pure pleasure.")
ShowMessageFace("",0,0,2,10)
ShowMessage("The texture inside of her is slimy, just like her body.")
ShowMessage("Mucus clings to her walls everywhere, rubbing against me as I move.")
ShowMessageFace("",0,0,2,11)
ShowMessage("Her slimy flesh rubs against my tip.")
ShowMessage("At the same time, everything inside of her squirms and wriggles on its own.")
ShowMessageFace("",0,0,2,12)
ShowMessage("\\n<Luka>Amazing...That feels good...")
ShowMessageFace("",0,0,2,13)
ShowMessage("It feels like my waist is melting.")
ShowMessage("I want to forget everything and give everything to this hole...")
ShowMessageFace("",0,0,2,14)
ShowMessage("It feels like my penis is melting in her.")
ShowMessage("My waist goes numb as my body jerks forward.")
RunCommonEvent(104)
PictureDisplay(5,"ev_highslag_hc17",0,0,0,0,100,100,255,0)
RunCommonEvent(105)
ShowMessageFace("",0,0,2,15)
ShowMessage("\\n<Luka>Huaaa...")
ShowMessageFace("",0,0,2,16)
ShowMessage("I quickly come inside of her.")
ShowMessage("My penis pulses as I shoot my white semen into her.")
ShowMessageFace("",0,0,2,17)
ShowMessage("With my orgasm finished, I drown in the feeling of her slimy body.")
ShowMessage("Immersed in ecstasy, I lay back, surrendering my body.")
ShowMessageFace("highslag_fc1",0,0,2,18)
ShowMessage("\\n<Elizabeth>Treating me to so much semen... Such a good boy.\nLet me give you a reward...")
PictureDisplay(5,"ev_highslag_hc18",0,0,0,0,100,100,255,0)
ShowMessageFace("",0,0,2,19)
ShowMessage("Sweet milky liquid flows from her nipple.")
ShowMessage("I sip the sweet nectar.")
ShowMessageFace("",0,0,2,20)
ShowMessage("My body instantly goes numb.")
ShowMessage("The sweet taste fills my body in pure ecstasy.")
RunCommonEvent(104)
PictureDisplay(5,"ev_highslag_hc19",0,0,0,0,100,100,255,0)
RunCommonEvent(105)
ShowMessageFace("",0,0,2,21)
ShowMessage("In only a few seconds, I come inside of her again.")
ShowMessage("My whole body rejoices in the sweet, melting sensation.")
ShowMessageFace("",0,0,2,22)
ShowMessage("\\n<Luka>Hnnaaa...")
ShowMessageFace("highslag_fc1",0,0,2,23)
ShowMessage("\\n<Elizabeth>I can't hold back if you act like such a baby...\nI could just eat you up. Ufufu...")
ShowMessageFace("",0,0,2,24)
ShowMessage("\\n<Luka>...Eh?")
ShowMessageFace("",0,0,2,25)
ShowMessage("She laughs as if joking.")
ShowMessage("But after a few moments... I realize she's serious.")
PictureDisplay(5,"ev_highslag_hc20",0,0,0,0,100,100,255,0)
ShowMessageFace("",0,0,2,26)
ShowMessage("\\n<Luka>Ah... Aaah!?")
ShowMessageFace("",0,0,2,27)
ShowMessage("Elizabeth's lower body starts to tighten around me.")
ShowMessage("My body is surrounded by her slimy, mucus body.")
ShowMessageFace("highslag_fc1",1,0,2,28)
ShowMessage("\\n<Elizabeth>I'm sure you know... But I'm a carnivore.")
ShowMessageFace("highslag_fc1",1,0,2,29)
ShowMessage("\\n<Elizabeth>With my slug lower body, I cover my prey...\nDissolve them in digestive juices, and devour them...")
ShowMessageFace("highslag_fc1",1,0,2,30)
ShowMessage("\\n<Elizabeth>Fufufu, just like you are now...")
ShowMessageFace("",0,0,2,31)
ShowMessage("\\n<Luka>Hii... Th-That...!")
ShowMessageFace("",0,0,2,32)
ShowMessage("I struggle in fear to escape from her mucus.")
ShowMessage("But her lower body, pressing against me, keeps me bound.")
ShowMessageFace("",0,0,2,33)
ShowMessage("My entire body is covered in her slimy feeling.")
ShowMessage("I look no different from any other prey struggling in their captors embrace.")
ShowMessageFace("",0,0,2,34)
ShowMessage("\\n<Luka>Why are you doing this... We're allies...!")
ShowMessageFace("highslag_fc1",1,0,2,35)
ShowMessage("\\n<Elizabeth>But you're just so cute...\nI want your body, your mind, your everything to be mine.")
ShowMessageFace("highslag_fc1",1,0,2,36)
ShowMessage("\\n<Elizabeth>This is how I show my love.\nI'll make everything of yours mine.")
ShowMessageFace("",0,0,2,37)
ShowMessage("\\n<Luka>N-nooo...!\nAaaah...!!")
PictureDisplay(5,"ev_highslag_hc21",0,0,0,0,100,100,255,0)
ShowMessageFace("",0,0,2,38)
ShowMessage("Mucus flows out from her body, covering me.")
ShowMessage("This must be the digestive juices...")
ShowMessageFace("",0,0,2,39)
ShowMessage("At the same time, her slimy body wrapped around me starts to move.")
ShowMessage("Squirming slowly...")
ShowMessageFace("",0,0,2,40)
ShowMessage("\\n<Luka>Ah, aaah...\nHuaaa...")
ShowMessageFace("",0,0,2,41)
ShowMessage("It starts to feel good.")
ShowMessage("The slimy caress massages my body.")
ShowMessageFace("",0,0,2,42)
ShowMessage("Sadly, the stimulation feels good.")
ShowMessage("My engorged penis rubs against her slimy body.")
ShowMessageFace("highslag_fc1",1,0,2,43)
ShowMessage("\\n<Elizabeth>Ufufu, it feels good, doesn't it?\nYou can leak as much as you want as you're melted...")
ShowMessageFace("highslag_fc1",1,0,2,44)
ShowMessage("\\n<Elizabeth>Please come lots.\nI'll make it even better...")
ShowMessageFace("",0,0,2,45)
ShowMessage("\\n<Luka>Ah...! Haau...!")
ShowMessageFace("",0,0,2,46)
ShowMessage("I feel her squishy, slimy body around my penis.")
ShowMessage("My penis is caught deep in her mucous membrane.")
ShowMessageFace("",0,0,2,47)
ShowMessage("Her slimy body squirms around me.")
ShowMessage("Stimulation to crush my mind in pleasure.")
ShowMessageFace("",0,0,2,48)
ShowMessage("\\n<Luka>Nnngh...Stop...!")
ShowMessageFace("highslag_fc1",1,0,2,49)
ShowMessage("\\n<Elizabeth>I'll dissolve your sexual organs, and digest them...\nNo man can resist climaxing from that.")
ShowMessageFace("",0,0,2,50)
ShowMessage("\\n<Luka>Ah, hyaaa...!")
ShowMessageFace("",0,0,2,51)
ShowMessage("Covered in digestive juices, my penis rubs against her.")
ShowMessage("It feels just as good as if I was inside of a vagina.")
ShowMessageFace("",0,0,2,52)
ShowMessage("\\n<Luka>Nnngh...I'm coming...")
ShowMessageFace("",0,0,2,53)
ShowMessage("Tangled in her body, rubbed by her slimy body...")
ShowMessage("Unable to endure much more, it starts to twitch and go numb.")
ShowMessageFace("highslag_fc1",1,0,2,54)
ShowMessage("\\n<Elizabeth>Ufufu, then come.\nHave a good climax as I melt you away.")
ShowMessageFace("",0,0,2,55)
ShowMessage("I tremble as Elizabeth toys with me.")
ShowMessage("Underneath her, I accept my defeat as a man.")
ShowMessageFace("",0,0,2,56)
ShowMessage("\\n<Luka>Ah... No more...\nAaaah...!")
RunCommonEvent(104)
PictureDisplay(5,"ev_highslag_hc22",0,0,0,0,100,100,255,0)
RunCommonEvent(105)
ShowMessageFace("",0,0,2,57)
ShowMessage("\\n<Luka>Hnnaaa...")
ShowMessageFace("",0,0,2,58)
ShowMessage("My penis pulses, spewing semen all over.")
ShowMessage("The mild white milky fluid stains her slimy body.")
ShowMessageFace("",0,0,2,59)
ShowMessage("A miserable climax as it's being digested.")
ShowMessage("Even though I feel defeated, the sense of release fills me.")
ShowMessageFace("highslag_fc1",1,0,2,60)
ShowMessage("\\n<Elizabeth>Ufufu, you came.\nLeaking while being digested, how shameful...")
ShowMessageFace("highslag_fc1",1,0,2,61)
ShowMessage("\\n<Elizabeth>Well then... I'll go a bit more violently.\nI'll devour you with my slug body...")
ShowMessageFace("",0,0,2,62)
ShowMessage("\\n<Luka>Hyaaa...! Aaaah...!")
PictureDisplay(5,"ev_highslag_hc23",0,0,0,0,100,100,255,0)
ShowMessageFace("",0,0,2,63)
ShowMessage("Elizabeth's lower body covers even more of me.")
ShowMessage("Her mucus covered flesh wraps around me.")
If(0,95,0)
 246(2)
 221()
 ShowMessageFace("",0,0,2,64)
 ShowMessage("＊＊＊The rest of the vore scene is being skipped.＊＊＊")
 JumpToLabel("zzz")
 0()
EndIf()
ShowMessageFace("",0,0,2,65)
ShowMessage("\\n<Luka>Hyaaa! H-Help me...!")
ShowMessageFace("",0,0,2,66)
ShowMessage("My body is being swallowed by her mucous membrane.")
ShowMessage("All over, her strange squirming covers me with more and more juices.")
ShowMessageFace("",0,0,2,67)
ShowMessage("Unable to struggle any more, I surrender myself over.")
ShowMessage("Knowing my own helplessness, being miserably digested.")
ShowMessageFace("highslag_fc1",1,0,2,68)
ShowMessage("\\n<Elizabeth>Don't worry, I'll take care of your penis until the end.\nAfter all, melted flesh tastes best mixed with some semen...")
ShowMessageFace("",0,0,2,69)
ShowMessage("\\n<Luka>Help me... Help...\nHya, Aaah...")
ShowMessageFace("",0,0,2,70)
ShowMessage("The mucous membrane around my penis tightens.")
ShowMessage("Squirming, it plays with every inch of my sensitive penis.")
ShowMessageFace("",0,0,2,71)
ShowMessage("It's toying with my penis as it covers it with more digestive juices.")
ShowMessage("She's really digesting me...")
ShowMessageFace("",0,0,2,72)
ShowMessage("\\n<Luka>N-no...\nNo...")
ShowMessageFace("",0,0,2,73)
ShowMessage("I shed helpless tears as I'm being digested.")
ShowMessage("However, my lower body trembles in joy...")
ShowMessageFace("",0,0,2,74)
ShowMessage("\\n<Luka>Ah, aaah...")
RunCommonEvent(104)
PictureDisplay(5,"ev_highslag_hc24",0,0,0,0,100,100,255,0)
RunCommonEvent(105)
ShowMessageFace("",0,0,2,75)
ShowMessage("I climax, spurting out some semen.")
ShowMessage("Unable to resist, my body is easily manipulated.")
ShowMessageFace("",0,0,2,76)
ShowMessage("I'll dissolve away in this sensation...")
ShowMessage("Tasting a mix of despair and cruel pleasure.")
ShowMessageFace("highslag_fc1",1,0,2,77)
ShowMessage("\\n<Elizabeth>Ahaha, such a cute boy.\nEven after all this, to keep coming...")
ShowMessageFace("highslag_fc1",1,0,2,78)
ShowMessage("\\n<Elizabeth>The digestion is advancing, too.\nNow, melt into mush...")
ShowMessageFace("",0,0,2,79)
ShowMessage("\\n<Luka>Nnngh...\nAh, aaah...")
ShowMessageFace("",0,0,2,80)
ShowMessage("The digestive juices cover my entire body.")
ShowMessage("A sweet ecstasy fills me as I dissolve away.")
ShowMessageFace("",0,0,2,81)
ShowMessage("Semen continues to drip from my penis as I melt in ecstasy.")
ShowMessage("A humiliating thing for a male...")
ShowMessageFace("highslag_fc1",1,0,2,82)
ShowMessage("\\n<Elizabeth>Ahaha, your consciousness is melting away, isn't it?\nAren't you overjoyed? You got to be devoured by me...")
ShowMessageFace("",0,0,2,83)
ShowMessage("\\n<Luka>....Ah....A...")
ShowMessageFace("",0,0,2,84)
ShowMessage("My mind itself melts away in her sweet slimy body.")
ShowMessage("My thoughts filled with ecstasy, I melt away...")
221()
PictureClear(5)
PictureClear(6)
246(2)
ShowMessageFace("",0,0,2,85)
ShowMessage("\\n<Luka>......")
ShowMessageFace("",0,0,2,86)
ShowMessage("Both my mind and body dissolve away.")
ShowMessage("Everything of mine is melted away by Elizabeth, no more than food...")
ShowMessageFace("",0,0,2,87)
ShowMessage("......")
DefineLabel("zzz")
242(2)
Wait(120)
ChangeVariable(1002,1002,0,0,0)
216(1)
355("forced_transfer(154,18,52)")
355("release_temp_actors")
355("$game_map.screen.clear")
0()
