﻿
DisplayName "Vampire Castle 2F"



EVENT   1
 PAGE   1
  250(bytes(0x04,0x08,0x6f,0x3a,0x0c,0x52,0x50,0x47,0x3a,0x3a,0x53,0x45,0x08,0x3a,0x0a,0x40,0x6e,0x61,0x6d,0x65,0x49,0x22,0x09,0x4d,0x6f,0x76,0x65,0x06,0x3a,0x06,0x45,0x54,0x3a,0x0b,0x40,0x70,0x69,0x74,0x63,0x68,0x69,0x69,0x3a,0x0c,0x40,0x76,0x6f,0x6c,0x75,0x6d,0x65,0x69,0x55))
  TeleportPlayer(0,293,13,31,0,0)
  0()



EVENT   2
 PAGE   1
  250(bytes(0x04,0x08,0x6f,0x3a,0x0c,0x52,0x50,0x47,0x3a,0x3a,0x53,0x45,0x08,0x3a,0x0a,0x40,0x6e,0x61,0x6d,0x65,0x49,0x22,0x09,0x4d,0x6f,0x76,0x65,0x06,0x3a,0x06,0x45,0x54,0x3a,0x0b,0x40,0x70,0x69,0x74,0x63,0x68,0x69,0x69,0x3a,0x0c,0x40,0x76,0x6f,0x6c,0x75,0x6d,0x65,0x69,0x55))
  TeleportPlayer(0,293,13,31,0,0)
  0()



EVENT   3
 PAGE   1
  250(bytes(0x04,0x08,0x6f,0x3a,0x0c,0x52,0x50,0x47,0x3a,0x3a,0x53,0x45,0x08,0x3a,0x0a,0x40,0x6e,0x61,0x6d,0x65,0x49,0x22,0x09,0x4d,0x6f,0x76,0x65,0x06,0x3a,0x06,0x45,0x54,0x3a,0x0b,0x40,0x70,0x69,0x74,0x63,0x68,0x69,0x69,0x3a,0x0c,0x40,0x76,0x6f,0x6c,0x75,0x6d,0x65,0x69,0x55))
  TeleportPlayer(0,293,13,31,0,0)
  0()



EVENT   4
 PAGE   1
  250(bytes(0x04,0x08,0x6f,0x3a,0x0c,0x52,0x50,0x47,0x3a,0x3a,0x53,0x45,0x08,0x3a,0x0a,0x40,0x6e,0x61,0x6d,0x65,0x49,0x22,0x0a,0x43,0x68,0x65,0x73,0x74,0x06,0x3a,0x06,0x45,0x54,0x3a,0x0b,0x40,0x70,0x69,0x74,0x63,0x68,0x69,0x69,0x3a,0x0c,0x40,0x76,0x6f,0x6c,0x75,0x6d,0x65,0x69,0x55))
  205(0,bytes(0x04,0x08,0x6f,0x3a,0x13,0x52,0x50,0x47,0x3a,0x3a,0x4d,0x6f,0x76,0x65,0x52,0x6f,0x75,0x74,0x65,0x09,0x3a,0x0c,0x40,0x72,0x65,0x70,0x65,0x61,0x74,0x46,0x3a,0x0f,0x40,0x73,0x6b,0x69,0x70,0x70,0x61,0x62,0x6c,0x65,0x46,0x3a,0x0a,0x40,0x77,0x61,0x69,0x74,0x54,0x3a,0x0a,0x40,0x6c,0x69,0x73,0x74,0x5b,0x0b,0x6f,0x3a,0x15,0x52,0x50,0x47,0x3a,0x3a,0x4d,0x6f,0x76,0x65,0x43,0x6f,0x6d,0x6d,0x61,0x6e,0x64,0x07,0x3a,0x0a,0x40,0x63,0x6f,0x64,0x65,0x69,0x29,0x3a,0x10,0x40,0x70,0x61,0x72,0x61,0x6d,0x65,0x74,0x65,0x72,0x73,0x5b,0x00,0x6f,0x3b,0x0a,0x07,0x3b,0x0b,0x69,0x16,0x3b,0x0c,0x5b,0x00,0x6f,0x3b,0x0a,0x07,0x3b,0x0b,0x69,0x14,0x3b,0x0c,0x5b,0x06,0x69,0x08,0x6f,0x3b,0x0a,0x07,0x3b,0x0b,0x69,0x17,0x3b,0x0c,0x5b,0x00,0x6f,0x3b,0x0a,0x07,0x3b,0x0b,0x69,0x14,0x3b,0x0c,0x5b,0x06,0x69,0x08,0x6f,0x3b,0x0a,0x07,0x3b,0x0b,0x69,0x00,0x3b,0x0c,0x5b,0x00))
  ChangeSelfSwitch("A",0)
  ChangeInventoryArmor(1565,0,0,1)
  0()
 PAGE   2
  // condition: self-switch A is ON
  0()



EVENT   5
 PAGE   1
  250(bytes(0x04,0x08,0x6f,0x3a,0x0c,0x52,0x50,0x47,0x3a,0x3a,0x53,0x45,0x08,0x3a,0x0a,0x40,0x6e,0x61,0x6d,0x65,0x49,0x22,0x0a,0x43,0x68,0x65,0x73,0x74,0x06,0x3a,0x06,0x45,0x54,0x3a,0x0b,0x40,0x70,0x69,0x74,0x63,0x68,0x69,0x69,0x3a,0x0c,0x40,0x76,0x6f,0x6c,0x75,0x6d,0x65,0x69,0x55))
  205(0,bytes(0x04,0x08,0x6f,0x3a,0x13,0x52,0x50,0x47,0x3a,0x3a,0x4d,0x6f,0x76,0x65,0x52,0x6f,0x75,0x74,0x65,0x09,0x3a,0x0c,0x40,0x72,0x65,0x70,0x65,0x61,0x74,0x46,0x3a,0x0f,0x40,0x73,0x6b,0x69,0x70,0x70,0x61,0x62,0x6c,0x65,0x46,0x3a,0x0a,0x40,0x77,0x61,0x69,0x74,0x54,0x3a,0x0a,0x40,0x6c,0x69,0x73,0x74,0x5b,0x0b,0x6f,0x3a,0x15,0x52,0x50,0x47,0x3a,0x3a,0x4d,0x6f,0x76,0x65,0x43,0x6f,0x6d,0x6d,0x61,0x6e,0x64,0x07,0x3a,0x0a,0x40,0x63,0x6f,0x64,0x65,0x69,0x29,0x3a,0x10,0x40,0x70,0x61,0x72,0x61,0x6d,0x65,0x74,0x65,0x72,0x73,0x5b,0x00,0x6f,0x3b,0x0a,0x07,0x3b,0x0b,0x69,0x16,0x3b,0x0c,0x5b,0x00,0x6f,0x3b,0x0a,0x07,0x3b,0x0b,0x69,0x14,0x3b,0x0c,0x5b,0x06,0x69,0x08,0x6f,0x3b,0x0a,0x07,0x3b,0x0b,0x69,0x17,0x3b,0x0c,0x5b,0x00,0x6f,0x3b,0x0a,0x07,0x3b,0x0b,0x69,0x14,0x3b,0x0c,0x5b,0x06,0x69,0x08,0x6f,0x3b,0x0a,0x07,0x3b,0x0b,0x69,0x00,0x3b,0x0c,0x5b,0x00))
  ChangeSelfSwitch("A",0)
  ChangeInventoryWeapon(320,0,0,1,false)
  0()
 PAGE   2
  // condition: self-switch A is ON
  0()



EVENT   6
 PAGE   1
  250(bytes(0x04,0x08,0x6f,0x3a,0x0c,0x52,0x50,0x47,0x3a,0x3a,0x53,0x45,0x08,0x3a,0x0a,0x40,0x6e,0x61,0x6d,0x65,0x49,0x22,0x0a,0x43,0x68,0x65,0x73,0x74,0x06,0x3a,0x06,0x45,0x54,0x3a,0x0b,0x40,0x70,0x69,0x74,0x63,0x68,0x69,0x69,0x3a,0x0c,0x40,0x76,0x6f,0x6c,0x75,0x6d,0x65,0x69,0x55))
  205(0,bytes(0x04,0x08,0x6f,0x3a,0x13,0x52,0x50,0x47,0x3a,0x3a,0x4d,0x6f,0x76,0x65,0x52,0x6f,0x75,0x74,0x65,0x09,0x3a,0x0c,0x40,0x72,0x65,0x70,0x65,0x61,0x74,0x46,0x3a,0x0f,0x40,0x73,0x6b,0x69,0x70,0x70,0x61,0x62,0x6c,0x65,0x46,0x3a,0x0a,0x40,0x77,0x61,0x69,0x74,0x54,0x3a,0x0a,0x40,0x6c,0x69,0x73,0x74,0x5b,0x0b,0x6f,0x3a,0x15,0x52,0x50,0x47,0x3a,0x3a,0x4d,0x6f,0x76,0x65,0x43,0x6f,0x6d,0x6d,0x61,0x6e,0x64,0x07,0x3a,0x0a,0x40,0x63,0x6f,0x64,0x65,0x69,0x29,0x3a,0x10,0x40,0x70,0x61,0x72,0x61,0x6d,0x65,0x74,0x65,0x72,0x73,0x5b,0x00,0x6f,0x3b,0x0a,0x07,0x3b,0x0b,0x69,0x16,0x3b,0x0c,0x5b,0x00,0x6f,0x3b,0x0a,0x07,0x3b,0x0b,0x69,0x14,0x3b,0x0c,0x5b,0x06,0x69,0x08,0x6f,0x3b,0x0a,0x07,0x3b,0x0b,0x69,0x17,0x3b,0x0c,0x5b,0x00,0x6f,0x3b,0x0a,0x07,0x3b,0x0b,0x69,0x14,0x3b,0x0c,0x5b,0x06,0x69,0x08,0x6f,0x3b,0x0a,0x07,0x3b,0x0b,0x69,0x00,0x3b,0x0c,0x5b,0x00))
  ChangeSelfSwitch("A",0)
  ChangeInventory_Item(109,0,0,1)
  0()
 PAGE   2
  // condition: self-switch A is ON
  0()



EVENT   7
 PAGE   1
  If(1,1001,0,30,0)
   If(1,1073,0,1,0)
    241(bytes(0x04,0x08,0x6f,0x3a,0x0d,0x52,0x50,0x47,0x3a,0x3a,0x42,0x47,0x4d,0x08,0x3a,0x0a,0x40,0x6e,0x61,0x6d,0x65,0x49,0x22,0x0a,0x62,0x6f,0x73,0x73,0x30,0x06,0x3a,0x06,0x45,0x54,0x3a,0x0c,0x40,0x76,0x6f,0x6c,0x75,0x6d,0x65,0x69,0x69,0x3a,0x0b,0x40,0x70,0x69,0x74,0x63,0x68,0x69,0x69))
    PictureDisplay(5,"80_queenvanpire_st11",0,0,0,0,100,100,0,0)
    PictureMove(5,null,0,0,0,0,100,100,255,0,60,true)
    ShowMessageFace("queenvampire_fc1",0,0,2,1)
    ShowMessage("\\n<Queen Vampire>Ooh, a human?\nWell done making it this far with your frail human body.")
    ShowMessageFace("ruka_fc1",0,0,2,2)
    ShowMessage("\\n<Luka>So, you're Queen Vampire!\nWe're here to stop you from conquering Sabasa!")
    ShowMessageFace("queenvampire_fc1",0,0,2,3)
    ShowMessage("\\n<Queen Vampire>Is that so...\nI put my faith in the strong and despise the weak. Power is the ultimate providence.")
    ShowMessageFace("queenvampire_fc1",0,0,2,4)
    ShowMessage("\\n<Queen Vampire>Thus, I follow the current Monster Lord's orders solely because of her immense power.")
    If(4,45,0)
     ShowMessageFace("alicetromeria_fc1",4,0,2,5)
     ShowMessage("\\n<Alicetroemeria>Fufu, how grand...\nI should like to have you as one of my followers.")
     0()
    EndIf()
    If(0,4,0)
     ShowMessageFace("alice_fc5",2,0,2,6)
     ShowMessage("\\n<Alice>Hmph, strength is the only thing you've ever valued. So what if we prove that we're stronger than you?")
     0()
    EndIf()
    If(0,5,0)
     ShowMessageFace("iriasu_fc4",7,0,2,7)
     ShowMessage("\\n<Ilias>\"Might makes right\" is a truly uncivilized way to live. How about if we prove stronger than you? What then?")
     0()
    EndIf()
    ShowMessageFace("queenvampire_fc1",0,0,2,8)
    ShowMessage("\\n<Queen Vampire>The weak must obey the strong. I believe I already made that clear. Demonstrating that your strength exceeds my own would be sufficient to earn my obedience.")
    ShowMessageFace("ruka_fc1",0,0,2,9)
    ShowMessage("\\n<Luka>So if we defeat you, you'll do what we tell you?\nNo objections?")
    ShowMessageFace("queenvampire_fc1",0,0,2,10)
    ShowMessage("\\n<Queen Vampire>None whatsoever.\nNow come, human hero. If you want me to obey you, prove your strength!")
    ShowMessageFace("ruka_fc1",0,0,2,11)
    ShowMessage("\\n<Luka>All right, I will!")
    If(4,66,0)
     ShowMessageFace("vgirl_fc1",2,0,2,12)
     ShowMessage("\\n<Vanilla>I can't fight the queen...")
     ShowMessageFace("queenvampire_fc1",0,0,2,13)
     ShowMessage("\\n<Queen Vampire>Don't look so sullen, little vampire.\nTake this as an opportunity to test your skills against a superior opponent!")
     ShowMessageFace("vgirl_fc1",0,0,2,14)
     ShowMessage("\\n<Vanilla>...Okay, I'll fight with everything I've got then!")
     0()
    EndIf()
    If(4,340,0)
     ShowMessageFace("queenvampire_fc1",0,0,2,15)
     ShowMessage("\\n<Fatima>Kuku... Fighting against myself is going to be interesting.")
     ShowMessageFace("queenvampire_fc1",0,0,2,16)
     ShowMessage("\\n<Queen Vampire>I'm fighting myself?!\nThis interesting turn of events has my blood pumping!")
     0()
    EndIf()
    PictureClear(5)
    SetBattleBGM(bytes(0x04,0x08,0x6f,0x3a,0x0d,0x52,0x50,0x47,0x3a,0x3a,0x42,0x47,0x4d,0x08,0x3a,0x0a,0x40,0x6e,0x61,0x6d,0x65,0x49,0x22,0x0a,0x62,0x6f,0x73,0x73,0x32,0x06,0x3a,0x06,0x45,0x54,0x3a,0x0c,0x40,0x76,0x6f,0x6c,0x75,0x6d,0x65,0x69,0x69,0x3a,0x0b,0x40,0x70,0x69,0x74,0x63,0x68,0x69,0x69))
    ChangeSwitch(22,22,0)
    283("DecorativeTile","Castle3")
    Battle(0,814,false,false)
    ChangeSwitch(22,22,1)
    SetBattleBGM(bytes(0x04,0x08,0x6f,0x3a,0x0d,0x52,0x50,0x47,0x3a,0x3a,0x42,0x47,0x4d,0x08,0x3a,0x0a,0x40,0x6e,0x61,0x6d,0x65,0x49,0x22,0x0b,0x62,0x61,0x74,0x74,0x6c,0x65,0x06,0x3a,0x06,0x45,0x54,0x3a,0x0c,0x40,0x76,0x6f,0x6c,0x75,0x6d,0x65,0x69,0x69,0x3a,0x0b,0x40,0x70,0x69,0x74,0x63,0x68,0x69,0x69))
    314(0,0)
    ChangeVariable(1073,1073,0,0,2)
    241(bytes(0x04,0x08,0x6f,0x3a,0x0d,0x52,0x50,0x47,0x3a,0x3a,0x42,0x47,0x4d,0x08,0x3a,0x0a,0x40,0x6e,0x61,0x6d,0x65,0x49,0x22,0x14,0x73,0x63,0x65,0x6e,0x65,0x5f,0x65,0x70,0x69,0x6c,0x6f,0x67,0x75,0x65,0x32,0x06,0x3a,0x06,0x45,0x54,0x3a,0x0c,0x40,0x76,0x6f,0x6c,0x75,0x6d,0x65,0x69,0x69,0x3a,0x0b,0x40,0x70,0x69,0x74,0x63,0x68,0x69,0x69))
    PictureDisplay(5,"80_queenvanpire_st13",0,0,0,0,100,100,0,0)
    PictureMove(5,null,0,0,0,0,100,100,255,0,30,true)
    355("gain_medal(57)")
    ShowMessageFace("queenvampire_fc1",2,0,2,17)
    ShowMessage("\\n<Queen Vampire>Ngh, you are indeed formidable...\nHas a mere human truly surpassed me?")
    If(4,530,0)
     ShowMessageFace("sara_fc4",1,0,2,18)
     ShowMessage("\\n<Sara>Ufufu, that was fun...")
     0()
    EndIf()
    PictureDisplay(5,"80_queenvanpire_st11",0,0,0,0,100,100,255,0)
    ShowMessageFace("queenvampire_fc1",0,0,2,19)
    ShowMessage("\\n<Queen Vampire>Very well, champion!\nAs promised, I shall obey you!")
    ShowMessageFace("queenvampire_fc1",0,0,2,20)
    ShowMessage("\\n<Queen Vampire>I already know what you desire from me.\nI shall withdraw all my vampires from Sabasa.")
    ShowMessageFace("ruka_fc1",0,0,2,21)
    ShowMessage("\\n<Luka>Gracious even in defeat? I guess you're not a bad person after all.")
    ShowMessageFace("queenvampire_fc1",0,0,2,22)
    ShowMessage("\\n<Queen Vampire>A noble monster would never renege on a promise. My pride depends on keeping my word.")
    ShowMessageFace("queenvampire_fc1",0,0,2,23)
    ShowMessage("\\n<Queen Vampire>But know this, hero.\nThe Monster Lord is far more powerful than me.")
    ShowMessageFace("ruka_fc1",0,0,2,24)
    ShowMessage("\\n<Luka>I'll be prepared!")
    ShowMessageFace("queenvampire_fc1",0,0,2,25)
    ShowMessage("\\n<Queen Vampire>I admire your spirit...\nYes, you'll do nicely.\nCarmilla! Elizabeth!")
    PictureClear(5)
    ChangeSwitch(31,31,0)
    205(14,bytes(0x04,0x08,0x6f,0x3a,0x13,0x52,0x50,0x47,0x3a,0x3a,0x4d,0x6f,0x76,0x65,0x52,0x6f,0x75,0x74,0x65,0x09,0x3a,0x0c,0x40,0x72,0x65,0x70,0x65,0x61,0x74,0x46,0x3a,0x0f,0x40,0x73,0x6b,0x69,0x70,0x70,0x61,0x62,0x6c,0x65,0x46,0x3a,0x0a,0x40,0x77,0x61,0x69,0x74,0x46,0x3a,0x0a,0x40,0x6c,0x69,0x73,0x74,0x5b,0x0d,0x6f,0x3a,0x15,0x52,0x50,0x47,0x3a,0x3a,0x4d,0x6f,0x76,0x65,0x43,0x6f,0x6d,0x6d,0x61,0x6e,0x64,0x07,0x3a,0x0a,0x40,0x63,0x6f,0x64,0x65,0x69,0x09,0x3a,0x10,0x40,0x70,0x61,0x72,0x61,0x6d,0x65,0x74,0x65,0x72,0x73,0x5b,0x00,0x6f,0x3b,0x0a,0x07,0x3b,0x0b,0x69,0x09,0x3b,0x0c,0x5b,0x00,0x6f,0x3b,0x0a,0x07,0x3b,0x0b,0x69,0x09,0x3b,0x0c,0x5b,0x00,0x6f,0x3b,0x0a,0x07,0x3b,0x0b,0x69,0x09,0x3b,0x0c,0x5b,0x00,0x6f,0x3b,0x0a,0x07,0x3b,0x0b,0x69,0x09,0x3b,0x0c,0x5b,0x00,0x6f,0x3b,0x0a,0x07,0x3b,0x0b,0x69,0x09,0x3b,0x0c,0x5b,0x00,0x6f,0x3b,0x0a,0x07,0x3b,0x0b,0x69,0x09,0x3b,0x0c,0x5b,0x00,0x6f,0x3b,0x0a,0x07,0x3b,0x0b,0x69,0x00,0x3b,0x0c,0x5b,0x00))
    205(15,bytes(0x04,0x08,0x6f,0x3a,0x13,0x52,0x50,0x47,0x3a,0x3a,0x4d,0x6f,0x76,0x65,0x52,0x6f,0x75,0x74,0x65,0x09,0x3a,0x0c,0x40,0x72,0x65,0x70,0x65,0x61,0x74,0x46,0x3a,0x0f,0x40,0x73,0x6b,0x69,0x70,0x70,0x61,0x62,0x6c,0x65,0x46,0x3a,0x0a,0x40,0x77,0x61,0x69,0x74,0x46,0x3a,0x0a,0x40,0x6c,0x69,0x73,0x74,0x5b,0x0d,0x6f,0x3a,0x15,0x52,0x50,0x47,0x3a,0x3a,0x4d,0x6f,0x76,0x65,0x43,0x6f,0x6d,0x6d,0x61,0x6e,0x64,0x07,0x3a,0x0a,0x40,0x63,0x6f,0x64,0x65,0x69,0x09,0x3a,0x10,0x40,0x70,0x61,0x72,0x61,0x6d,0x65,0x74,0x65,0x72,0x73,0x5b,0x00,0x6f,0x3b,0x0a,0x07,0x3b,0x0b,0x69,0x09,0x3b,0x0c,0x5b,0x00,0x6f,0x3b,0x0a,0x07,0x3b,0x0b,0x69,0x09,0x3b,0x0c,0x5b,0x00,0x6f,0x3b,0x0a,0x07,0x3b,0x0b,0x69,0x09,0x3b,0x0c,0x5b,0x00,0x6f,0x3b,0x0a,0x07,0x3b,0x0b,0x69,0x09,0x3b,0x0c,0x5b,0x00,0x6f,0x3b,0x0a,0x07,0x3b,0x0b,0x69,0x09,0x3b,0x0c,0x5b,0x00,0x6f,0x3b,0x0a,0x07,0x3b,0x0b,0x69,0x09,0x3b,0x0c,0x5b,0x00,0x6f,0x3b,0x0a,0x07,0x3b,0x0b,0x69,0x00,0x3b,0x0c,0x5b,0x00))
    Wait(60)
    PictureDisplay(5,"80_carmilla_st01",0,0,-150,0,100,100,0,0)
    PictureDisplay(6,"80_elisabeth_st01",0,0,150,0,100,100,0,0)
    PictureMove(5,null,0,0,-150,0,100,100,255,0,30,false)
    PictureMove(6,null,0,0,150,0,100,100,255,0,30,true)
    ShowMessageFace("carmilla_fc1",0,0,2,26)
    ShowMessage("\\n<Carmilla>Yes, Your Majesty!")
    ShowMessageFace("elisabeth_fc1",0,0,2,27)
    ShowMessage("\\n<Elizabeth>You require me, my queen?")
    PictureClear(6)
    PictureDisplay(5,"80_queenvanpire_st11",0,0,0,0,100,100,255,0)
    ShowMessageFace("queenvampire_fc1",0,0,2,28)
    ShowMessage("\\n<Queen Vampire>Accompany this hero and lend him your power. Be strong, noble, and beautiful so as to not disparage my name.")
    PictureDisplay(5,"80_carmilla_st01",0,0,-150,0,100,100,255,0)
    PictureDisplay(6,"80_elisabeth_st01",0,0,150,0,100,100,255,0)
    ShowMessageFace("carmilla_fc1",0,0,2,29)
    ShowMessage("\\n<Carmilla>I am all too happy to obey. ♪")
    ShowMessageFace("elisabeth_fc1",0,0,2,30)
    ShowMessage("\\n<Elizabeth>As you command, I shall obey.\nLet us go forth and conquer together!")
    ChangeSwitch(31,31,1)
    PictureClear(5)
    PictureClear(6)
    355("add_actor_ex(338)")
    355("add_actor_ex(339)")
    249(bytes(0x04,0x08,0x6f,0x3a,0x0c,0x52,0x50,0x47,0x3a,0x3a,0x4d,0x45,0x08,0x3a,0x0a,0x40,0x6e,0x61,0x6d,0x65,0x49,0x22,0x0c,0x66,0x61,0x6e,0x66,0x61,0x6c,0x65,0x06,0x3a,0x06,0x45,0x54,0x3a,0x0b,0x40,0x70,0x69,0x74,0x63,0x68,0x69,0x69,0x3a,0x0c,0x40,0x76,0x6f,0x6c,0x75,0x6d,0x65,0x69,0x69))
    ShowMessageFace("",0,0,2,31)
    ShowMessage("Carmilla and Elizabeth have joined the party!")
    If(0,6,0)
     ShowMessageFace("sonia_fc2",2,0,2,32)
     ShowMessage("\\n<Sonya>Do we not get a say in this...?")
     ShowMessageFace("ruka_fc1",0,0,2,33)
     ShowMessage("\\n<Luka>Why not let them come along? They'll be useful.")
     0()
    Else()
     ShowMessageFace("ruka_fc1",0,0,2,34)
     ShowMessage("\\n<Luka>Do we not get a say in this...\nOh well, I don't mind.")
     0()
    EndIf()
    If(0,4,0)
     ShowMessageFace("alice_fc5",2,0,2,35)
     ShowMessage("\\n<Alice>Now that we've dealt with the vampires attacking Sabasa, we should head back to Sabasa Castle and inform Sara.")
     0()
    EndIf()
    If(0,5,0)
     ShowMessageFace("iriasu_fc4",0,0,2,36)
     ShowMessage("\\n<Ilias>Now that we have dealt with the vampires attacking Sabasa, we should head back to Sabasa Castle and inform Sara.")
     0()
    EndIf()
    If(12,"exist_party_persona_id?(529)")
     ShowMessageFace("sara_fc1",1,0,2,37)
     ShowMessage("\\n<Sara>I'm standing right here, you know...")
     If(0,4,0)
      ShowMessageFace("alice_fc5",0,0,2,38)
      ShowMessage("\\n<Alice>An important part of being a ruler is conducting official business like entertaining a hero in the royal palace and receiving news that monsters have been properly subjugated.")
      0()
     EndIf()
     If(0,5,0)
      ShowMessageFace("iriasu_fc4",0,0,2,39)
      ShowMessage("\\n<Ilias>An important part of being a ruler is conducting official business like entertaining a hero in the royal palace and receiving news that monsters have been properly subjugated.")
      0()
     EndIf()
     ShowMessageFace("sara_fc1",1,0,2,40)
     ShowMessage("\\n<Sara>In that case, I better go prepare an appropriate reward. Back to Sabasa Castle then!")
     0()
    EndIf()
    If(12,"exist_party_persona_id?(530)")
     ShowMessageFace("sara_fc4",0,0,2,41)
     ShowMessage("\\n<Sara>I'm standing right here, you know...")
     If(0,4,0)
      ShowMessageFace("alice_fc5",0,0,2,42)
      ShowMessage("\\n<Alice>An important part of being a ruler is conducting official business like entertaining a hero in the royal palace and receiving news that monsters have been properly subjugated.")
      0()
     EndIf()
     If(0,5,0)
      ShowMessageFace("iriasu_fc4",0,0,2,43)
      ShowMessage("\\n<Ilias>An important part of being a ruler is conducting official business like entertaining a hero in the royal palace and receiving news that monsters have been properly subjugated.")
      0()
     EndIf()
     ShowMessageFace("sara_fc4",0,0,2,44)
     ShowMessage("\\n<Sara>In that case, I better go prepare an appropriate reward. Back to Sabasa Castle then!")
     0()
    EndIf()
    EndEventProcessing()
    0()
   EndIf()
   If(1,1073,0,2,1)
    PictureDisplay(5,"80_queenvanpire_st11",0,0,0,0,100,100,0,0)
    PictureMove(5,null,0,0,0,0,100,100,255,0,30,true)
    ShowMessageFace("queenvampire_fc1",0,0,2,45)
    ShowMessage("\\n<Queen Vampire>Take care of yourself, hero.\nThe Monster Lord is far more powerful than me.")
    ShowMessageFace("queenvampire_fc1",0,0,2,46)
    ShowMessage("\\n<Queen Vampire>May the sword that bested me overcome the Monster Lord as well!")
    PictureClear(5)
    EndEventProcessing()
    0()
   EndIf()
   0()
  EndIf()
  If(1,1001,0,31,1)
   PictureDisplay(5,"80_queenvanpire_st11",0,0,0,0,100,100,0,0)
   PictureMove(5,null,0,0,0,0,100,100,255,0,30,true)
   If(1,1086,0,0,0)
    ShowMessageFace("queenvampire_fc1",0,0,2,47)
    ShowMessage("\\n<Queen Vampire>Your frequent visits are an admirable endeavor. Or perhaps you have some ulterior motive?")
    ShowChoices(strings("I want you to join my party","Nothing really"),2)
    IfPlayerPicksChoice(0,null)
     ShowMessageFace("queenvampire_fc1",0,0,2,48)
     ShowMessage("\\n<Queen Vampire>Ooh? I admire the moxie of a man who would request my services. However, I'm afraid I must concentrate on my ambition to seize the world for myself.")
     ShowMessageFace("elisabeth_fc1",0,0,2,49)
     ShowMessage("\\n<Elizabeth>Your Majesty, why not let Luka help you with your ambition?")
     ShowMessageFace("carmilla_fc1",0,0,2,50)
     ShowMessage("\\n<Carmilla>An excellent idea.\nI'm sure Luka would be happy to assist. ♪")
     ShowMessageFace("queenvampire_fc1",0,0,2,51)
     ShowMessage("\\n<Queen Vampire>Hmm, I see...\nIn exchange for joining his party, he can make my dreams come true.")
     If(0,6,0)
      ShowMessageFace("sonia_fc2",2,0,2,52)
      ShowMessage("\\n<Sonya>Hold on, there's no way we'll help you take over the world...")
      0()
     Else()
      ShowMessageFace("ruka_fc1",0,0,2,53)
      ShowMessage("\\n<Luka>Hold on, there's no way we'll help you take over the world...")
      0()
     EndIf()
     ShowMessageFace("queenvampire_fc1",0,0,2,54)
     ShowMessage("\\n<Queen Vampire>Let's not be hasty...\nEver since I lost to you, I've been considering non-violent methods of rule.")
     ShowMessageFace("queenvampire_fc1",0,0,2,55)
     ShowMessage("\\n<Queen Vampire>Thus, I've decided to take over the world economically! I shall have a global business empire!")
     ShowMessageFace("carmilla_fc1",0,0,2,56)
     ShowMessage("\\n<Carmilla>You're truly a genius, Your Majesty!\nSo we're moving ahead with that plan?")
     ShowMessageFace("elisabeth_fc1",0,0,2,57)
     ShowMessage("\\n<Elizabeth>It's the perfect time to execute your Sustainable Business Model Program!")
     If(0,4,0)
      ShowMessageFace("alice_fc5",3,0,2,58)
      ShowMessage("\\n<Alice>Why do I have a bad feeling about this...")
      0()
     EndIf()
     If(0,5,0)
      ShowMessageFace("iriasu_fc4",2,0,2,59)
      ShowMessage("\\n<Ilias>Nothing good can come of this...")
      0()
     EndIf()
     ShowMessageFace("queenvampire_fc1",0,0,2,60)
     ShowMessage("\\n<Queen Vampire>Yes, the Sustainable Business Model Program!\nWe're going to open a vampire pub!")
     ShowMessageFace("queenvampire_fc1",0,0,2,61)
     ShowMessage("\\n<Queen Vampire>Our first location will open in Sabasa.\nThen, if all goes well, we'll expand all over the world!")
     If(0,6,0)
      ShowMessageFace("sonia_fc2",2,0,2,62)
      ShowMessage("\\n<Sonya>Isn't that just a knock off of the mermaid pub...")
      0()
     Else()
      ShowMessageFace("ruka_fc1",0,0,2,63)
      ShowMessage("\\n<Luka>Isn't that just a knock off of the mermaid pub...")
      0()
     EndIf()
     ShowMessageFace("queenvampire_fc1",0,0,2,64)
     ShowMessage("\\n<Queen Vampire>Hero Luka, I could use your assistance.\nAre you friends with any of my kind who happen to know how to run a business?")
     If(1,1005,0,4,2)
      ShowMessageFace("",0,0,2,65)
      ShowMessage("No one comes to mind...")
      ShowMessageFace("queenvampire_fc1",0,0,2,66)
      ShowMessage("\\n<Queen Vampire>That's a shame. If you happen to come across any of my kind with business experience, please bring them here.")
      ShowMessageFace("",0,0,2,67)
      ShowMessage("We should look for a vampire merchant...")
      PictureClear(5)
      EndEventProcessing()
      0()
     EndIf()
     If(1,1005,0,18,2)
      ShowMessageFace("vgirl_fc1",2,0,2,68)
      ShowMessage("\\n<Vanilla>I haven't honed my skills enough for such a large undertaking...")
      ShowMessageFace("queenvampire_fc1",0,0,2,69)
      ShowMessage("\\n<Queen Vampire>I understand if you're not up to the task.\nOnce you've improved your business acumen, come see me again.")
      ShowMessageFace("",0,0,2,70)
      ShowMessage("Let's expand Vanilla's shop further...")
      PictureClear(5)
      EndEventProcessing()
      0()
     EndIf()
     ShowMessageFace("vgirl_fc1",0,0,2,71)
     ShowMessage("\\n<Vanilla>I should be able to help.\nIt would be an honor to be of assistance to my queen.")
     ShowMessageFace("queenvampire_fc1",0,0,2,72)
     ShowMessage("\\n<Queen Vampire>Let's have a look at you, little vampire...\nYes, you'll do nicely.\nSo how do we make this pub in Sabasa a reality?")
     ShowMessageFace("vgirl_fc1",0,0,2,73)
     ShowMessage("\\n<Vanilla>Umm, first we need to decide on a location...\nWe'll need to prepare the registration and look over the pertinent business regulations as well.")
     ShowMessageFace("queenvampire_fc1",0,0,2,74)
     ShowMessage("\\n<Queen Vampire>Very well, I'll leave it all to you.\nYou can bill Elizabeth for the land purchase and all other necessary expenses.")
     ShowMessageFace("vgirl_fc1",0,0,2,75)
     ShowMessage("\\n<Vanilla>Okay, let's find a spot then.\nHmm, looking over the Sabasa Vacant Property Index...")
     If(0,1062,0)
      ShowMessageFace("gob_fc1",3,0,2,76)
      ShowMessage("\\n<Gob>Why do you carry that around with you...")
      0()
     EndIf()
     ShowMessageFace("vgirl_fc1",0,0,2,77)
     ShowMessage("\\n<Vanilla>...I'm not seeing any suitable properties.\nA location along the main street would be ideal, but...")
     ShowMessageFace("vgirl_fc1",0,0,2,78)
     ShowMessage("\\n<Vanilla>...Hmm? Here's a promising spot that just came up on the market.\nBuilding S-16 in the 3rd ward...")
     If(0,4,0)
      ShowMessageFace("alice_fc5",0,0,2,79)
      ShowMessage("\\n<Alice>That address sounds familiar...\nIf I recall correctly, that's the run-down house that the assassin Salaan was living in.")
      0()
     EndIf()
     If(0,5,0)
      ShowMessageFace("iriasu_fc4",2,0,2,80)
      ShowMessage("\\n<Ilias>I recognize that address.\nIt's the shanty that the assassin Salaan was living in.")
      0()
     EndIf()
     If(4,559,0)
      ShowMessageFace("mob_assasin1_fc1",1,0,2,81)
      ShowMessage("\\n<Salaan>That's right...\nYou'll have to go there if you want more information.")
      0()
     EndIf()
     ShowMessageFace("vgirl_fc1",0,0,2,82)
     ShowMessage("\\n<Vanilla>Okay, let's head straight to Sabasa and see if we can come to an agreement!")
     ShowMessageFace("queenvampire_fc1",0,0,2,83)
     ShowMessage("\\n<Queen Vampire>Excellent. The matter is in your hands.\nI shall remain here.")
     ChangeVariable(1086,1086,0,0,1)
     PictureClear(5)
     EndEventProcessing()
     0()
    IfPlayerPicksChoice(1,null)
     ShowMessageFace("queenvampire_fc1",0,0,2,84)
     ShowMessage("\\n<Queen Vampire>I see. So you just wanted to see my face again?")
     ShowMessageFace("queenvampire_fc1",0,0,2,85)
     ShowMessage("\\n<Queen Vampire>I'm truly honored!")
     PictureClear(5)
     EndEventProcessing()
     0()
    404()
    0()
   EndIf()
   If(1,1086,0,1,0)
    ShowMessageFace("vgirl_fc1",0,0,2,86)
    ShowMessage("\\n<Vanilla>Okay, let's head straight to Sabasa and see if we can come to an agreement!")
    ShowMessageFace("queenvampire_fc1",0,0,2,87)
    ShowMessage("\\n<Queen Vampire>Excellent. The matter is in your hands.\nI shall remain here.")
    PictureClear(5)
    EndEventProcessing()
    0()
   EndIf()
   0()
  EndIf()
  0()
 PAGE   2
  // condition: variable 1086 >= 2
  0()



EVENT   8
 PAGE   1
  PictureDisplay(5,"80_elisabeth_st01",0,0,0,0,100,100,0,0)
  PictureMove(5,null,0,0,0,0,100,100,255,0,30,true)
  ShowMessageFace("elisabeth_fc1",0,0,2,1)
  ShowMessage("\\n<Elizabeth>Well done making it this far!\nIt's time to pay you back for what happened in Sabasa!")
  If(12,"exist_party_persona_id?(529)")
   ShowMessageFace("sara_fc1",2,0,2,2)
   ShowMessage("\\n<Sara>No matter how many times you try, the result will be the same!")
   0()
  EndIf()
  If(12,"exist_party_persona_id?(530)")
   ShowMessageFace("sara_fc4",1,0,2,3)
   ShowMessage("\\n<Sara>Fufu... You wanted to play with me again?")
   0()
  EndIf()
  If(0,4,0)
   ShowMessageFace("alice_fc5",2,0,2,4)
   ShowMessage("\\n<Alice>Hmph, this time won't be any different!")
   0()
  EndIf()
  If(0,5,0)
   ShowMessageFace("iriasu_fc4",7,0,2,5)
   ShowMessage("\\n<Ilias>You didn't get enough last time?\nThen let us knock you around some more!")
   0()
  EndIf()
  PictureClear(5)
  SetBattleBGM(bytes(0x04,0x08,0x6f,0x3a,0x0d,0x52,0x50,0x47,0x3a,0x3a,0x42,0x47,0x4d,0x08,0x3a,0x0a,0x40,0x6e,0x61,0x6d,0x65,0x49,0x22,0x0a,0x62,0x6f,0x73,0x73,0x31,0x06,0x3a,0x06,0x45,0x54,0x3a,0x0c,0x40,0x76,0x6f,0x6c,0x75,0x6d,0x65,0x69,0x69,0x3a,0x0b,0x40,0x70,0x69,0x74,0x63,0x68,0x69,0x69))
  ChangeSwitch(22,22,0)
  Battle(0,813,false,false)
  ChangeSwitch(22,22,1)
  SetBattleBGM(bytes(0x04,0x08,0x6f,0x3a,0x0d,0x52,0x50,0x47,0x3a,0x3a,0x42,0x47,0x4d,0x08,0x3a,0x0a,0x40,0x6e,0x61,0x6d,0x65,0x49,0x22,0x0b,0x62,0x61,0x74,0x74,0x6c,0x65,0x06,0x3a,0x06,0x45,0x54,0x3a,0x0c,0x40,0x76,0x6f,0x6c,0x75,0x6d,0x65,0x69,0x69,0x3a,0x0b,0x40,0x70,0x69,0x74,0x63,0x68,0x69,0x69))
  ShowMessageFace("elisabeth_fc1",2,0,2,6)
  ShowMessage("\\n<Elizabeth>How could I lose a second time...\nForgive me for my failure, my queen...")
  ChangeSwitch(2253,2253,0)
  If(0,4,0)
   ShowMessageFace("alice_fc5",2,0,2,7)
   ShowMessage("\\n<Alice>The queen is just ahead! Let's go get her!")
   0()
  EndIf()
  If(0,5,0)
   ShowMessageFace("iriasu_fc4",0,0,2,8)
   ShowMessage("\\n<Ilias>The queen is just ahead! Let's go pay her a visit!")
   0()
  EndIf()
  If(4,66,0)
   ShowMessageFace("vgirl_fc1",2,0,2,9)
   ShowMessage("\\n<Vanilla>*shiver*\nDo-Do we have to?")
   0()
  EndIf()
  EndEventProcessing()
  0()
 PAGE   2
  // condition: switch 2253 is ON
  0()



EVENT   9
 PAGE   1
  ChangeSwitch(2254,2254,0)
  250(bytes(0x04,0x08,0x6f,0x3a,0x0c,0x52,0x50,0x47,0x3a,0x3a,0x53,0x45,0x08,0x3a,0x0a,0x40,0x6e,0x61,0x6d,0x65,0x49,0x22,0x0b,0x4d,0x61,0x67,0x69,0x63,0x31,0x06,0x3a,0x06,0x45,0x54,0x3a,0x0b,0x40,0x70,0x69,0x74,0x63,0x68,0x69,0x69,0x3a,0x0c,0x40,0x76,0x6f,0x6c,0x75,0x6d,0x65,0x69,0x55))
  281(1)
  TeleportPlayer(0,294,29,32,6,1)
  ShowMessageFace("ruka_fc1",0,0,2,1)
  ShowMessage("\\n<Luka>Huh...?")
  If(0,4,0)
   ShowMessageFace("alice_fc5",2,0,2,2)
   ShowMessage("\\n<Alice>This looks like a loop trap.\nWithout the proper item to disarm it, we can't get through.")
   0()
  EndIf()
  If(0,5,0)
   ShowMessageFace("iriasu_fc4",2,0,2,3)
   ShowMessage("\\n<Ilias>This looks like a loop trap.\nWithout the proper item to disarm it, we cannot proceed.")
   0()
  EndIf()
  ShowMessageFace("ruka_fc1",0,0,2,4)
  ShowMessage("\\n<Luka>All right, let's go find that item then!")
  EndEventProcessing()
  0()
 PAGE   2
  // condition: switch 2252 is ON
  ChangeSwitch(2255,2255,0)
  If(0,2254,1)
   If(0,4,0)
    ShowMessageFace("alice_fc5",0,0,2,1)
    ShowMessage("\\n<Alice>This hallway is equipped with a loop trap...\nBut since we have the item that nullifies it, it didn't go off.")
    0()
   EndIf()
   If(0,5,0)
    ShowMessageFace("iriasu_fc4",0,0,2,2)
    ShowMessage("\\n<Ilias>This hallway is equipped with a loop trap...\nBut since we have the item that nullifies it, it did not activate.")
    0()
   EndIf()
   ShowMessageFace("ruka_fc1",0,0,2,3)
   ShowMessage("\\n<Luka>Good thing we picked up that vampire tear earlier. All right, let's keep moving!")
   EndEventProcessing()
   0()
  EndIf()
  If(0,2254,0)
   If(0,4,0)
    ShowMessageFace("alice_fc5",1,0,2,4)
    ShowMessage("\\n<Alice>Thanks to the vampire tear, the loop trap has been disabled. Let's keep moving!")
    0()
   EndIf()
   If(0,5,0)
    ShowMessageFace("iriasu_fc4",1,0,2,5)
    ShowMessage("\\n<Ilias>Thanks to the vampire tear, the loop trap has been disabled. Onward!")
    0()
   EndIf()
   EndEventProcessing()
   0()
  EndIf()
  0()
 PAGE   3
  // condition: switch 2255 is ON
  0()



EVENT   10
 PAGE   1
  ChangeSwitch(2254,2254,0)
  250(bytes(0x04,0x08,0x6f,0x3a,0x0c,0x52,0x50,0x47,0x3a,0x3a,0x53,0x45,0x08,0x3a,0x0a,0x40,0x6e,0x61,0x6d,0x65,0x49,0x22,0x0b,0x4d,0x61,0x67,0x69,0x63,0x31,0x06,0x3a,0x06,0x45,0x54,0x3a,0x0b,0x40,0x70,0x69,0x74,0x63,0x68,0x69,0x69,0x3a,0x0c,0x40,0x76,0x6f,0x6c,0x75,0x6d,0x65,0x69,0x55))
  281(1)
  TeleportPlayer(0,294,29,32,6,1)
  ShowMessageFace("ruka_fc1",0,0,2,1)
  ShowMessage("\\n<Luka>Huh...?")
  If(0,4,0)
   ShowMessageFace("alice_fc5",2,0,2,2)
   ShowMessage("\\n<Alice>This looks like a loop trap.\nWithout the proper item to disarm it, we can't get through.")
   0()
  EndIf()
  If(0,5,0)
   ShowMessageFace("iriasu_fc4",2,0,2,3)
   ShowMessage("\\n<Ilias>This looks like a loop trap.\nWithout the proper item to disarm it, we cannot proceed.")
   0()
  EndIf()
  ShowMessageFace("ruka_fc1",0,0,2,4)
  ShowMessage("\\n<Luka>All right, let's go find that item then!")
  EndEventProcessing()
  0()
 PAGE   2
  // condition: switch 2252 is ON
  ChangeSwitch(2255,2255,0)
  If(0,2254,1)
   If(0,4,0)
    ShowMessageFace("alice_fc5",0,0,2,1)
    ShowMessage("\\n<Alice>This hallway is equipped with a loop trap...\nBut since we have the item that nullifies it, it didn't go off.")
    0()
   EndIf()
   If(0,5,0)
    ShowMessageFace("iriasu_fc4",0,0,2,2)
    ShowMessage("\\n<Ilias>This hallway is equipped with a loop trap...\nBut since we have the item that nullifies it, it did not activate.")
    0()
   EndIf()
   ShowMessageFace("ruka_fc1",0,0,2,3)
   ShowMessage("\\n<Luka>Good thing we picked up that vampire tear earlier. All right, let's keep moving!")
   EndEventProcessing()
   0()
  EndIf()
  If(0,2254,0)
   If(0,4,0)
    ShowMessageFace("alice_fc5",1,0,2,4)
    ShowMessage("\\n<Alice>Thanks to the vampire tear, the loop trap has been disabled. Let's keep moving!")
    0()
   EndIf()
   If(0,5,0)
    ShowMessageFace("iriasu_fc4",1,0,2,5)
    ShowMessage("\\n<Ilias>Thanks to the vampire tear, the loop trap has been disabled. Onward!")
    0()
   EndIf()
   EndEventProcessing()
   0()
  EndIf()
  0()
 PAGE   3
  // condition: switch 2255 is ON
  0()



EVENT   11
 PAGE   1
  ChangeSwitch(2254,2254,0)
  250(bytes(0x04,0x08,0x6f,0x3a,0x0c,0x52,0x50,0x47,0x3a,0x3a,0x53,0x45,0x08,0x3a,0x0a,0x40,0x6e,0x61,0x6d,0x65,0x49,0x22,0x0b,0x4d,0x61,0x67,0x69,0x63,0x31,0x06,0x3a,0x06,0x45,0x54,0x3a,0x0b,0x40,0x70,0x69,0x74,0x63,0x68,0x69,0x69,0x3a,0x0c,0x40,0x76,0x6f,0x6c,0x75,0x6d,0x65,0x69,0x55))
  281(1)
  TeleportPlayer(0,294,29,32,6,1)
  ShowMessageFace("ruka_fc1",0,0,2,1)
  ShowMessage("\\n<Luka>Huh...?")
  If(0,4,0)
   ShowMessageFace("alice_fc5",2,0,2,2)
   ShowMessage("\\n<Alice>This looks like a loop trap.\nWithout the proper item to disarm it, we can't get through.")
   0()
  EndIf()
  If(0,5,0)
   ShowMessageFace("iriasu_fc4",2,0,2,3)
   ShowMessage("\\n<Ilias>This looks like a loop trap.\nWithout the proper item to disarm it, we cannot proceed.")
   0()
  EndIf()
  ShowMessageFace("ruka_fc1",0,0,2,4)
  ShowMessage("\\n<Luka>All right, let's go find that item then!")
  EndEventProcessing()
  0()
 PAGE   2
  // condition: switch 2252 is ON
  ChangeSwitch(2255,2255,0)
  If(0,2254,1)
   If(0,4,0)
    ShowMessageFace("alice_fc5",0,0,2,1)
    ShowMessage("\\n<Alice>This hallway is equipped with a loop trap...\nBut since we have the item that nullifies it, it didn't go off.")
    0()
   EndIf()
   If(0,5,0)
    ShowMessageFace("iriasu_fc4",0,0,2,2)
    ShowMessage("\\n<Ilias>This hallway is equipped with a loop trap...\nBut since we have the item that nullifies it, it did not activate.")
    0()
   EndIf()
   ShowMessageFace("ruka_fc1",0,0,2,3)
   ShowMessage("\\n<Luka>Good thing we picked up that vampire tear earlier. All right, let's keep moving!")
   EndEventProcessing()
   0()
  EndIf()
  If(0,2254,0)
   If(0,4,0)
    ShowMessageFace("alice_fc5",1,0,2,4)
    ShowMessage("\\n<Alice>Thanks to the vampire tear, the loop trap has been disabled. Let's keep moving!")
    0()
   EndIf()
   If(0,5,0)
    ShowMessageFace("iriasu_fc4",1,0,2,5)
    ShowMessage("\\n<Ilias>Thanks to the vampire tear, the loop trap has been disabled. Onward!")
    0()
   EndIf()
   EndEventProcessing()
   0()
  EndIf()
  0()
 PAGE   3
  // condition: switch 2255 is ON
  0()



EVENT   12
 PAGE   1
  ShowMessageFace("elisabeth_fc1",2,0,2,1)
  ShowMessage("\\n<Elizabeth>Don't try to walk past and ignore me!\nThat's rude!")
  205(-1,bytes(0x04,0x08,0x6f,0x3a,0x13,0x52,0x50,0x47,0x3a,0x3a,0x4d,0x6f,0x76,0x65,0x52,0x6f,0x75,0x74,0x65,0x09,0x3a,0x0c,0x40,0x72,0x65,0x70,0x65,0x61,0x74,0x46,0x3a,0x0f,0x40,0x73,0x6b,0x69,0x70,0x70,0x61,0x62,0x6c,0x65,0x46,0x3a,0x0a,0x40,0x77,0x61,0x69,0x74,0x54,0x3a,0x0a,0x40,0x6c,0x69,0x73,0x74,0x5b,0x07,0x6f,0x3a,0x15,0x52,0x50,0x47,0x3a,0x3a,0x4d,0x6f,0x76,0x65,0x43,0x6f,0x6d,0x6d,0x61,0x6e,0x64,0x07,0x3a,0x0a,0x40,0x63,0x6f,0x64,0x65,0x69,0x06,0x3a,0x10,0x40,0x70,0x61,0x72,0x61,0x6d,0x65,0x74,0x65,0x72,0x73,0x5b,0x00,0x6f,0x3b,0x0a,0x07,0x3b,0x0b,0x69,0x00,0x3b,0x0c,0x5b,0x00))
  0()
 PAGE   2
  // condition: switch 2253 is ON
  0()



EVENT   13
 PAGE   1
  ShowMessageFace("elisabeth_fc1",2,0,2,1)
  ShowMessage("\\n<Elizabeth>Don't try to walk past and ignore me!\nThat's rude!")
  205(-1,bytes(0x04,0x08,0x6f,0x3a,0x13,0x52,0x50,0x47,0x3a,0x3a,0x4d,0x6f,0x76,0x65,0x52,0x6f,0x75,0x74,0x65,0x09,0x3a,0x0c,0x40,0x72,0x65,0x70,0x65,0x61,0x74,0x46,0x3a,0x0f,0x40,0x73,0x6b,0x69,0x70,0x70,0x61,0x62,0x6c,0x65,0x46,0x3a,0x0a,0x40,0x77,0x61,0x69,0x74,0x54,0x3a,0x0a,0x40,0x6c,0x69,0x73,0x74,0x5b,0x07,0x6f,0x3a,0x15,0x52,0x50,0x47,0x3a,0x3a,0x4d,0x6f,0x76,0x65,0x43,0x6f,0x6d,0x6d,0x61,0x6e,0x64,0x07,0x3a,0x0a,0x40,0x63,0x6f,0x64,0x65,0x69,0x06,0x3a,0x10,0x40,0x70,0x61,0x72,0x61,0x6d,0x65,0x74,0x65,0x72,0x73,0x5b,0x00,0x6f,0x3b,0x0a,0x07,0x3b,0x0b,0x69,0x00,0x3b,0x0c,0x5b,0x00))
  0()
 PAGE   2
  // condition: switch 2253 is ON
  0()



EVENT   14
 PAGE   1
  // condition: switch 31 is ON
  0()



EVENT   15
 PAGE   1
  // condition: switch 31 is ON
  0()



EVENT   16
 PAGE   1
  250(bytes(0x04,0x08,0x6f,0x3a,0x0c,0x52,0x50,0x47,0x3a,0x3a,0x53,0x45,0x08,0x3a,0x0a,0x40,0x6e,0x61,0x6d,0x65,0x49,0x22,0x0a,0x48,0x65,0x61,0x6c,0x37,0x06,0x3a,0x06,0x45,0x54,0x3a,0x0b,0x40,0x70,0x69,0x74,0x63,0x68,0x69,0x69,0x3a,0x0c,0x40,0x76,0x6f,0x6c,0x75,0x6d,0x65,0x69,0x55))
  224(bytes(0x04,0x08,0x75,0x3a,0x0a,0x43,0x6f,0x6c,0x6f,0x72,0x25,0x00,0x00,0x00,0x00,0x00,0xe0,0x6f,0x40,0x00,0x00,0x00,0x00,0x00,0xe0,0x6f,0x40,0x00,0x00,0x00,0x00,0x00,0xe0,0x6f,0x40,0x00,0x00,0x00,0x00,0x00,0xe0,0x6f,0x40),30,true)
  314(0,0)
  ShowMessageFace("",0,0,2,1)
  ShowMessage("The party's HP and MP have been fully restored!")
  0()



EVENT   17
 PAGE   1
  ShowMessageFace("vendetta_fc1",0,0,2,1)
  ShowMessage("\\n<Vendetta>I'd love to visit the San Ilia basement library.\nI could get my hands on so many great books there...")
  0()



EVENT   18
 PAGE   1
  ShowMessageFace("conquista_fc1",0,0,2,1)
  ShowMessage("\\n<Conquista>I'm focused on studying. High-ranking vampires value education.")
  0()
